<?xml version="1.0" encoding="UTF-8" standalone="no"?> <svg xmlns="http://www.w3.org/2000/svg" xmlns:xlink="http://www.w3.org/1999/xlink" width="350pt" height="353pt" viewBox="0.00 0.00 350.00 352.80">
<g id="graph0" class="graph" transform="scale(1 1) rotate(0) translate(4 348.8)">
<title>%0</title>
<polygon fill="#ffffff" stroke="transparent" points="-4,4 -4,-348.8 346,-348.8 346,4 -4,4"></polygon>
<g id="clust1" class="cluster">
<title>cluster</title>
<polygon fill="#234178" fill-opacity="0.184314" stroke="#000000" points="8,-8 8,-336.8 334,-336.8 334,-8 8,-8"></polygon>
<text text-anchor="middle" x="171" y="-320.2" font-family="Times,serif" font-size="14.00" fill="#000000">Global</text>
</g>
<g id="clust2" class="cluster">
<title>cluster_1</title>
<polygon fill="#234178" fill-opacity="0.184314" stroke="#000000" points="16,-166 16,-304 326,-304 326,-166 16,-166"></polygon>
</g>
<!-- Logger_0_1 -->
<g id="node1" class="node">
<title>Logger_0_1</title>
<g id="a_node1">">
<polygon fill="#fffea3" stroke="transparent" points="208.5,-66 157.5,-66 157.5,-16 208.5,-16 208.5,-66"></polygon>
<text text-anchor="start" x="161.8423" y="-48.5" font-family="times" font-size="15.00" fill="#000000">Logger</text>
<text text-anchor="start" x="179.75" y="-24.5" font-family="times" font-size="15.00" fill="#000000">1</text>
<polygon fill="#000000" stroke="#000000" points="158,-41 158,-41 209,-41 209,-41 158,-41"></polygon>
<polygon fill="none" stroke="#000000" points="157.5,-16 157.5,-66 208.5,-66 208.5,-16 157.5,-16"></polygon>
</g>
</g>
<!-- u_0 -->
<g id="node2" class="node">
<title>u_0</title>
<g id="a_node2">
<ellipse fill="#d3d247" stroke="#000000" cx="147" cy="-120" rx="27" ry="18"></ellipse>
<text text-anchor="middle" x="147" y="-115.8" font-family="Times,serif" font-size="14.00" fill="#000000">u</text>
</g>
</g>
<!-- u_0&#45;&gt;Logger_0_1 -->
<g id="edge7" class="edge">
<title>u_0-&gt;Logger_0_1</title>
<path fill="none" stroke="#112c5f" stroke-width="2" d="M154.9896,-102.4673C158.625,-94.4896 163.0592,-84.759 167.3175,-75.4145"></path>
<polygon fill="#112c5f" stroke="#112c5f" stroke-width="2" points="170.5191,-76.829 171.481,-66.2779 164.1493,-73.9262 170.5191,-76.829"></polygon>
</g>
<!-- v_0 -->
<g id="node3" class="node">
<title>v_0</title>
<g id="a_node3">
<ellipse fill="#d3d247" stroke="#000000" cx="219" cy="-120" rx="27" ry="18"></ellipse>
<text text-anchor="middle" x="219" y="-115.8" font-family="Times,serif" font-size="14.00" fill="#000000">v</text>
</g>
</g>
<!-- v_0&#45;&gt;Logger_0_1 -->
<g id="edge8" class="edge">
<title>v_0-&gt;Logger_0_1</title>
<path fill="none" stroke="#112c5f" stroke-width="2" d="M211.0104,-102.4673C207.375,-94.4896 202.9408,-84.759 198.6825,-75.4145"></path>
<polygon fill="#112c5f" stroke="#112c5f" stroke-width="2" points="201.8507,-73.9262 194.519,-66.2779 195.4809,-76.829 201.8507,-73.9262"></polygon>
</g>
<!-- System_1_0_1 -->
<g id="node4" class="node">
<title>System_1_0_1</title>
<g id="a_node4">">
<polygon fill="#fffea3" stroke="transparent" points="209,-224 157,-224 157,-174 209,-174 209,-224"></polygon>
<text text-anchor="start" x="160.9163" y="-206.5" font-family="times" font-size="15.00" fill="#000000">System</text>
<text text-anchor="start" x="173.625" y="-182.5" font-family="times" font-size="15.00" fill="#000000">0.1</text>
<polygon fill="#000000" stroke="#000000" points="157,-199 157,-199 209,-199 209,-199 157,-199"></polygon>
<polygon fill="none" stroke="#000000" points="157,-174 157,-224 209,-224 209,-174 157,-174"></polygon>
</g>
</g>
<!-- System_1_0_1&#45;&gt;u_0 -->
<g id="edge2" class="edge">
<title>System_1_0_1-&gt;u_0</title>
<path fill="none" stroke="#8f100d" stroke-width="3" d="M171.4112,-173.5691C167.5283,-165.0483 163.1876,-155.5228 159.2554,-146.8939"></path>
<polygon fill="#8f100d" stroke="#8f100d" stroke-width="3" points="162.3674,-145.2822 155.0357,-137.6339 155.9976,-148.185 162.3674,-145.2822"></polygon>
</g>
<!-- System_1_0_1&#45;&gt;v_0 -->
<g id="edge3" class="edge">
<title>System_1_0_1-&gt;v_0</title>
<path fill="none" stroke="#8f100d" stroke-width="3" d="M194.5888,-173.5691C198.4717,-165.0483 202.8124,-155.5228 206.7446,-146.8939"></path>
<polygon fill="#8f100d" stroke="#8f100d" stroke-width="3" points="210.0024,-148.185 210.9643,-137.6339 203.6326,-145.2822 210.0024,-148.185"></polygon>
</g>
<!-- I_0_1 -->
<g id="node5" class="node">
<title>I_0_1</title>
<g id="a_node5">
<ellipse fill="#d3d247" stroke="#000000" cx="291" cy="-278" rx="27" ry="18"></ellipse>
<text text-anchor="middle" x="291" y="-273.8" font-family="Times,serif" font-size="14.00" fill="#000000">I_0</text>
</g>
</g>
<!-- I_0_1&#45;&gt;System_1_0_1 -->
<g id="edge1" class="edge">
<title>I_0_1-&gt;System_1_0_1</title>
<path fill="none" stroke="#112c5f" stroke-width="2" d="M272.6793,-264.5987C257.5446,-253.528 235.6418,-237.5065 217.2709,-224.0685"></path>
<polygon fill="#112c5f" stroke="#112c5f" stroke-width="2" points="219.2534,-221.1823 209.1158,-218.1032 215.1206,-226.8321 219.2534,-221.1823"></polygon>
</g>
<!-- a_1 -->
<g id="node6" class="node">
<title>a_1</title>
<g id="a_node6">
<ellipse fill="#d3d247" stroke="#000000" cx="219" cy="-278" rx="27" ry="18"></ellipse>
<text text-anchor="middle" x="219" y="-273.8" font-family="Times,serif" font-size="14.00" fill="#000000">a</text>
</g>
</g>
<!-- a_1&#45;&gt;System_1_0_1 -->
<g id="edge4" class="edge">
<title>a_1-&gt;System_1_0_1</title>
<path fill="none" stroke="#112c5f" stroke-width="2" d="M211.0104,-260.4673C207.375,-252.4896 202.9408,-242.759 198.6825,-233.4145"></path>
<polygon fill="#112c5f" stroke="#112c5f" stroke-width="2" points="201.8507,-231.9262 194.519,-224.2779 195.4809,-234.829 201.8507,-231.9262"></polygon>
</g>
<!-- b_1 -->
<g id="node7" class="node">
<title>b_1</title>
<g id="a_node7">
<ellipse fill="#d3d247" stroke="#000000" cx="147" cy="-278" rx="27" ry="18"></ellipse>
<text text-anchor="middle" x="147" y="-273.8" font-family="Times,serif" font-size="14.00" fill="#000000">b</text>
</g>
</g>
<!-- b_1&#45;&gt;System_1_0_1 -->
<g id="edge5" class="edge">
<title>b_1-&gt;System_1_0_1</title>
<path fill="none" stroke="#112c5f" stroke-width="2" d="M154.9896,-260.4673C158.625,-252.4896 163.0592,-242.759 167.3175,-233.4145"></path>
<polygon fill="#112c5f" stroke="#112c5f" stroke-width="2" points="170.5191,-234.829 171.481,-224.2779 164.1493,-231.9262 170.5191,-234.829"></polygon>
</g>
<!-- epsilon_1 -->
<g id="node8" class="node">
<title>epsilon_1</title>
<g id="a_node8">
<ellipse fill="#d3d247" stroke="#000000" cx="63" cy="-278" rx="38.8632" ry="18"></ellipse>
<text text-anchor="middle" x="63" y="-273.8" font-family="Times,serif" font-size="14.00" fill="#000000">epsilon</text>
</g>
</g>
<!-- epsilon_1&#45;&gt;System_1_0_1 -->
<g id="edge6" class="edge">
<title>epsilon_1-&gt;System_1_0_1</title>
<path fill="none" stroke="#112c5f" stroke-width="2" d="M85.5711,-263.1407C103.1951,-251.5382 127.9926,-235.2132 148.1593,-221.9368"></path>
<polygon fill="#112c5f" stroke="#112c5f" stroke-width="2" points="150.3418,-224.6904 156.7698,-216.2682 146.4927,-218.8436 150.3418,-224.6904"></polygon>
</g>
</g>
</svg>