<?xml version="1.0" encoding="UTF-8" standalone="no"?> <svg xmlns="http://www.w3.org/2000/svg" xmlns:xlink="http://www.w3.org/1999/xlink" width="388pt" height="242pt" viewBox="0.00 0.00 388 242">
<g id="graph0" class="graph" transform="translate(4, 238)">
<title>%0</title>
<polygon fill="#ffffff" stroke="transparent" points="-4,4 -4,-238 384,-238 384,4 -4,4"></polygon>
<g id="clust1" class="cluster">
<title>cluster</title>
<polygon fill="#234178" fill-opacity="0.184314" stroke="#000000" points="8,-8 8,-226 372,-226 372,-8 8,-8"></polygon>
<text text-anchor="middle" x="190" y="-209.4" font-family="Times,serif" font-size="14.00" fill="#000000">Global</text>
</g>

<!-- empty --><g id="clust3" class="cluster">
<title style="">cluster_2</title>
<polygon fill="#234178" fill-opacity="0.184314" stroke="#000000" points="16,-16 16,-134.6 364,-134.6 364,-16 16,-16" style=""></polygon>
<text text-anchor="middle" x="190" y="-118" font-family="Times,serif" font-size="14.00" fill="#000000" style="">CellType[cells]</text>
</g>
<g id="clust4" class="cluster">
<title style="">cluster_cpm2</title>
<polygon fill="#234178" fill-opacity="0.184314" stroke="#000000" points="24,-24 24,-101.8 140,-101.8 140,-24 24,-24" style=""></polygon>
<text text-anchor="middle" x="82" y="-85.2" font-family="Times,serif" font-size="14.00" fill="#000000" style="">CPM components</text>
</g>

<g id="node1" class="node">
<title>CPM_0_1</title>
<g id="a_node1">
<polygon fill="#fffea3" stroke="#000000" points="172,-143.1 172,-192.7 226,-192.7 226,-143.1 172,-143.1"></polygon>
<text text-anchor="middle" x="198.7819" y="-176.1" font-family="Times,serif" font-size="14.00" fill="#000000">CPM</text>
<polyline fill="none" stroke="#000000" points="172,-167.9 225.5638,-167.9 "></polyline>
<text text-anchor="middle" x="198.7819" y="-151.3" font-family="Times,serif" font-size="14.00" fill="#000000">1</text>
</g>
</g>
<!-- Chemotaxis_3 --><g id="node3" class="node">
<title style="">Chemotaxis_2</title>
<g id="a_node3">
<path fill="#fffea3" stroke="#000000" d="M59.5589,-32.5C59.5589,-32.5 118.4411,-32.5 118.4411,-32.5 124.4411,-32.5 130.4411,-38.5 130.4411,-44.5 130.4411,-44.5 130.4411,-56.5 130.4411,-56.5 130.4411,-62.5 124.4411,-68.5 118.4411,-68.5 118.4411,-68.5 59.5589,-68.5 59.5589,-68.5 53.5589,-68.5 47.5589,-62.5 47.5589,-56.5 47.5589,-56.5 47.5589,-44.5 47.5589,-44.5 47.5589,-38.5 53.5589,-32.5 59.5589,-32.5" style=""></path>
<text text-anchor="middle" x="89" y="-46.3" font-family="Times,serif" font-size="14.00" fill="#000000" style="">Chemotaxis</text>
</g>
</g>

<!-- CPM_0_1&#45;&gt;Chemotaxis_3 --><g id="edge1" class="edge">
<title style="">CPM_0_1-&gt;Chemotaxis_2</title>
<path fill="none" stroke="#38568c" d="M171.6811,-158.3035C159.0697,-152.8447 144.5832,-144.9957 134,-134.6 124.5129,-125.2809 116.5496,-113.5324 110.0877,-101.7959"></path>
</g>

<!-- cell_center_3 --><g id="node4" class="node">
<title style="">cell_center_2</title>
<ellipse fill="#b5b426" stroke="#000000" cx="199" cy="-50.5" rx="50.9572" ry="18" style=""></ellipse>
<text text-anchor="middle" x="199" y="-46.3" font-family="Times,serif" font-size="14.00" fill="#000000" style="">cell.center</text>
</g>

<!-- CPM_0_1&#45;&gt;cell_center_3 --><g id="edge2" class="edge">
<title style="">CPM_0_1-&gt;cell_center_2</title>
<path fill="none" stroke="#8f100d" stroke-width="3" d="M199,-143.0025C199,-124.2614 199,-98.547 199,-78.9863"></path>
<polygon fill="#8f100d" stroke="#8f100d" stroke-width="3" points="202.5001,-78.8357 199,-68.8357 195.5001,-78.8357 202.5001,-78.8357"></polygon>
</g>

<!-- cell_type_3 --><g id="node5" class="node">
<title style="">cell_type_2</title>
<g id="a_node5">
<ellipse fill="#d3d247" stroke="#000000" cx="312" cy="-50.5" rx="44.0377" ry="18" style=""></ellipse>
<text text-anchor="middle" x="312" y="-46.3" font-family="Times,serif" font-size="14.00" fill="#000000" style="">cell.type</text>
</g>
</g>

<!-- CPM_0_1&#45;&gt;cell_type_3 --><g id="edge3" class="edge">
<title style="">CPM_0_1-&gt;cell_type_2</title>
<path fill="none" stroke="#8f100d" stroke-width="3" d="M226.2985,-156.3966C237.2881,-150.8847 249.5658,-143.5232 259,-134.6 276.1382,-118.3901 290.0846,-95.5144 299.3618,-77.7124"></path>
<polygon fill="#8f100d" stroke="#8f100d" stroke-width="3" points="302.6685,-78.9265 304.026,-68.419 296.4123,-75.7865 302.6685,-78.9265"></polygon>
</g>

<!-- U_0 -->
<g id="node2" class="node">
<title>U_0</title>
<g id="a_node2">
<ellipse fill="#d3d247" stroke="#000000" cx="89" cy="-167.9" rx="27" ry="18"></ellipse>
<text text-anchor="middle" x="89" y="-163.7" font-family="Times,serif" font-size="14.00" fill="#000000">U</text>
</g>
</g>
<!-- U_0&#45;&gt;Chemotaxis_3 --><g id="edge4" class="edge">
<title style="">U_0-&gt;Chemotaxis_2</title>
<path fill="none" stroke="#112c5f" stroke-width="2" d="M89,-149.8135C89,-130.9096 89,-100.9832 89,-78.9182"></path>
<polygon fill="#112c5f" stroke="#112c5f" stroke-width="2" points="92.5001,-78.8004 89,-68.8004 85.5001,-78.8005 92.5001,-78.8004"></polygon>
</g>
</g>
</svg>