<?xml version="1.0" encoding="UTF-8" standalone="no"?> <svg xmlns="http://www.w3.org/2000/svg" xmlns:xlink="http://www.w3.org/1999/xlink" width="2673pt" height="890pt" viewBox="0.00 0.00 2673.00 889.60">
<g id="graph0" class="graph" transform="scale(1 1) rotate(0) translate(4 885.6)">
<title style="">%0</title>
<polygon fill="#ffffff" stroke="transparent" points="-4,4 -4,-885.6 2669,-885.6 2669,4 -4,4" style=""></polygon>
<g id="clust1" class="cluster">
<title style="">cluster</title>
<polygon fill="#234178" fill-opacity="0.184314" stroke="#000000" points="8,-8 8,-873.6 2657,-873.6 2657,-8 8,-8" style=""></polygon>
<text text-anchor="middle" x="1332.5" y="-857" font-family="Times,serif" font-size="14.00" fill="#000000">Global</text>
</g>
<g id="clust3" class="cluster">
<title style="">cluster_2</title>
<polygon fill="#234178" fill-opacity="0.184314" stroke="#000000" points="224,-16 224,-782.8 1054,-782.8 1054,-16 224,-16" style=""></polygon>
<text text-anchor="middle" x="639" y="-766.2" font-family="Times,serif" font-size="14.00" fill="#000000">CellType[dividingcell]</text>
</g>
<g id="clust4" class="cluster">
<title style="">cluster_cpm2</title>
<polygon fill="#234178" fill-opacity="0.184314" stroke="#000000" points="924,-24 924,-107.4 1046,-107.4 1046,-24 924,-24" style=""></polygon>
<text text-anchor="middle" x="985" y="-90.8" font-family="Times,serif" font-size="14.00" fill="#000000">CPM components</text>
</g>
<g id="clust6" class="cluster">
<title style="">cluster_4</title>
<polygon fill="#234178" fill-opacity="0.184314" stroke="#000000" points="978,-179.4 978,-245.4 1046,-245.4 1046,-179.4 978,-179.4" style=""></polygon>
</g>
<!-- Gnuplotter_0_50 -->
<g id="node1" class="node">
<title style="">Gnuplotter_0_50</title>
<g id="a_node1">">
<polygon fill="#fffea3" stroke="transparent" points="2290,-840.8 2218,-840.8 2218,-790.8 2290,-790.8 2290,-840.8" style=""></polygon>
<text text-anchor="start" x="2221.507" y="-823.3" font-family="times" font-size="15.00" fill="#000000">Gnuplotter</text>
<text text-anchor="start" x="2246.5" y="-799.3" font-family="times" font-size="15.00" fill="#000000">50</text>
<polygon fill="#000000" stroke="#000000" points="2218,-815.8 2218,-815.8 2290,-815.8 2290,-815.8 2218,-815.8" style=""></polygon>
<polygon fill="none" stroke="#000000" points="2218,-790.8 2218,-840.8 2290,-840.8 2290,-790.8 2218,-790.8" style=""></polygon>
</g>
</g>
<!-- CPM_0_1 -->
<g id="node2" class="node">
<title style="">CPM_0_1</title>
<g id="a_node2">
<polygon fill="#fffea3" stroke="#000000" points="1826,-517.9 1826,-567.5 1880,-567.5 1880,-517.9 1826,-517.9" style=""></polygon>
<text text-anchor="middle" x="1852.7819" y="-550.9" font-family="Times,serif" font-size="14.00" fill="#000000">CPM</text>
<polyline fill="none" stroke="#000000" points="1826,-542.7 1879.5638,-542.7 " style=""></polyline>
<text text-anchor="middle" x="1852.7819" y="-526.1" font-family="Times,serif" font-size="14.00" fill="#000000">1</text>
</g>
</g>
<!-- cell_center_0 -->
<g id="node19" class="node">
<title style="">cell_center_0</title>
<ellipse fill="#b5b426" stroke="#000000" cx="1117" cy="-456.4" rx="50.9588" ry="18" style=""></ellipse>
<ellipse fill="none" stroke="#000000" cx="1117" cy="-456.4" rx="54.9572" ry="22" style=""></ellipse>
<text text-anchor="middle" x="1117" y="-452.2" font-family="Times,serif" font-size="14.00" fill="#000000">cell.center</text>
</g>
<!-- CPM_0_1&#45;&gt;cell_center_0 -->
<g id="edge7" class="edge">
<title style="">CPM_0_1-&gt;cell_center_0</title>
<path fill="none" stroke="#8f100d" stroke-width="3" d="M1825.8167,-541.2427C1716.2623,-535.2118 1306.9931,-511.1243 1181,-481.4 1175.273,-480.0489 1169.3768,-478.2902 1163.5893,-476.3313" style=""></path>
<polygon fill="#8f100d" stroke="#8f100d" stroke-width="3" points="1164.5953,-472.9737 1154.0009,-472.882 1162.2258,-479.5604 1164.5953,-472.9737" style=""></polygon>
</g>
<!-- cell_type_0 -->
<g id="node20" class="node">
<title style="">cell_type_0</title>
<ellipse fill="#d3d247" stroke="#000000" cx="1238" cy="-456.4" rx="44.0361" ry="18" style=""></ellipse>
<ellipse fill="none" stroke="#000000" cx="1238" cy="-456.4" rx="48.0377" ry="22" style=""></ellipse>
<text text-anchor="middle" x="1238" y="-452.2" font-family="Times,serif" font-size="14.00" fill="#000000">cell.type</text>
</g>
<!-- CPM_0_1&#45;&gt;cell_type_0 -->
<g id="edge8" class="edge">
<title style="">CPM_0_1-&gt;cell_type_0</title>
<path fill="none" stroke="#8f100d" stroke-width="3" d="M1825.8816,-540.816C1728.5802,-533.8862 1397.3857,-508.7875 1295,-481.4 1290.0383,-480.0728 1284.9541,-478.3766 1279.964,-476.4942" style=""></path>
<polygon fill="#8f100d" stroke="#8f100d" stroke-width="3" points="1281.1237,-473.188 1270.5405,-472.6928 1278.505,-479.6797 1281.1237,-473.188" style=""></polygon>
</g>
<!-- DirectedMotion_2_9504528359561386930 -->
<g id="node41" class="node">
<title style="">DirectedMotion_2_9504528359561386930</title>
<g id="a_node41">
<path fill="#fffea3" stroke="#000000" d="M944.291,-32.5C944.291,-32.5 1025.709,-32.5 1025.709,-32.5 1031.709,-32.5 1037.709,-38.5 1037.709,-44.5 1037.709,-44.5 1037.709,-62.1 1037.709,-62.1 1037.709,-68.1 1031.709,-74.1 1025.709,-74.1 1025.709,-74.1 944.291,-74.1 944.291,-74.1 938.291,-74.1 932.291,-68.1 932.291,-62.1 932.291,-62.1 932.291,-44.5 932.291,-44.5 932.291,-38.5 938.291,-32.5 944.291,-32.5" style=""></path>
<text text-anchor="middle" x="985" y="-57.5" font-family="Times,serif" font-size="14.00" fill="#000000">DirectedMotion</text>
<text text-anchor="middle" x="985" y="-40.7" font-family="Times,serif" font-size="14.00" fill="#000000">'cell migration'</text>
</g>
</g>
<!-- CPM_0_1&#45;&gt;DirectedMotion_2_9504528359561386930 -->
<g id="edge6" class="edge">
<title style="">CPM_0_1-&gt;DirectedMotion_2_9504528359561386930</title>
<path fill="none" stroke="#38568c" stroke-dasharray="5,2" d="M1880.4739,-538.2796C2027.9283,-513.9982 2714.971,-393.5474 2610,-273.4 2504.6263,-152.7916 1328.9776,-74.1556 1045.9961,-56.8905" style=""></path>
</g>
<!-- A2_0 -->
<g id="node3" class="node">
<title style="">A2_0</title>
<g id="a_node3">
<ellipse fill="#d3d247" stroke="#000000" cx="1889" cy="-641" rx="27" ry="18" style=""></ellipse>
<text text-anchor="middle" x="1889" y="-636.8" font-family="Times,serif" font-size="14.00" fill="#000000">A2</text>
</g>
</g>
<!-- A2_0&#45;&gt;CPM_0_1 -->
<g id="edge1" class="edge">
<title style="">A2_0-&gt;CPM_0_1</title>
<path fill="none" stroke="#112c5f" stroke-width="2" d="M1882.5639,-623.4259C1877.8409,-610.5295 1871.2758,-592.6032 1865.5317,-576.9185" style=""></path>
<polygon fill="#112c5f" stroke="#112c5f" stroke-width="2" points="1868.8105,-575.6937 1862.085,-567.5072 1862.2375,-578.101 1868.8105,-575.6937" style=""></polygon>
</g>
<!-- A3_0 -->
<g id="node4" class="node">
<title style="">A3_0</title>
<g id="a_node4">
<ellipse fill="#d3d247" stroke="#000000" cx="1817" cy="-641" rx="27" ry="18" style=""></ellipse>
<text text-anchor="middle" x="1817" y="-636.8" font-family="Times,serif" font-size="14.00" fill="#000000">A3</text>
</g>
</g>
<!-- A3_0&#45;&gt;CPM_0_1 -->
<g id="edge2" class="edge">
<title style="">A3_0-&gt;CPM_0_1</title>
<path fill="none" stroke="#112c5f" stroke-width="2" d="M1823.4361,-623.4259C1828.1591,-610.5295 1834.7242,-592.6032 1840.4683,-576.9185" style=""></path>
<polygon fill="#112c5f" stroke="#112c5f" stroke-width="2" points="1843.7625,-578.101 1843.915,-567.5072 1837.1895,-575.6937 1843.7625,-578.101" style=""></polygon>
</g>
<!-- C_0 -->
<g id="node5" class="node">
<title style="">C_0</title>
<g id="a_node5">
<ellipse fill="#d3d247" stroke="#000000" cx="2384" cy="-291.4" rx="27" ry="18" style=""></ellipse>
<text text-anchor="middle" x="2384" y="-287.2" font-family="Times,serif" font-size="14.00" fill="#000000">C</text>
</g>
</g>
<!-- System_4_1500 -->
<g id="node59" class="node">
<title style="">System_4_1500</title>
<g id="a_node59">">
<polygon fill="#fffea3" stroke="transparent" points="1038,-237.4 986,-237.4 986,-187.4 1038,-187.4 1038,-237.4" style=""></polygon>
<text text-anchor="start" x="989.9163" y="-219.9" font-family="times" font-size="15.00" fill="#000000">System</text>
<text text-anchor="start" x="997" y="-195.9" font-family="times" font-size="15.00" fill="#000000">1500</text>
<polygon fill="#000000" stroke="#000000" points="986,-212.4 986,-212.4 1038,-212.4 1038,-212.4 986,-212.4" style=""></polygon>
<polygon fill="none" stroke="#000000" points="986,-187.4 986,-237.4 1038,-237.4 1038,-187.4 986,-187.4" style=""></polygon>
</g>
</g>
<!-- C_0&#45;&gt;System_4_1500 -->
<g id="edge9" class="edge">
<title style="">C_0-&gt;System_4_1500</title>
<path fill="none" stroke="#112c5f" stroke-width="2" d="M2363.6634,-279.2934C2358.6997,-276.8914 2353.2909,-274.709 2348,-273.4 2207.1038,-238.5405 1174.0997,-305.538 1042,-245.4 1040.8108,-244.8586 1039.6481,-244.2453 1038.5135,-243.5717" style=""></path>
<polygon fill="#112c5f" stroke="#112c5f" stroke-width="2" points="1040.4794,-240.6702 1030.3933,-237.4266 1036.2552,-246.252 1040.4794,-240.6702" style=""></polygon>
</g>
<!-- C1_0 -->
<g id="node6" class="node">
<title style="">C1_0</title>
<g id="a_node6">
<ellipse fill="#d3d247" stroke="#000000" cx="1163" cy="-133.4" rx="27" ry="18" style=""></ellipse>
<text text-anchor="middle" x="1163" y="-129.2" font-family="Times,serif" font-size="14.00" fill="#000000">C1</text>
</g>
</g>
<!-- C1_0&#45;&gt;DirectedMotion_2_9504528359561386930 -->
<g id="edge3" class="edge">
<title style="">C1_0-&gt;DirectedMotion_2_9504528359561386930</title>
<path fill="none" stroke="#112c5f" stroke-width="2" d="M1141.3858,-122.3677C1136.6665,-120.0221 1131.6829,-117.5929 1127,-115.4 1099.8719,-102.6963 1069.4839,-89.2975 1043.8017,-78.2107" style=""></path>
<polygon fill="#112c5f" stroke="#112c5f" stroke-width="2" points="1045.1366,-74.9749 1034.5675,-74.2362 1042.3692,-81.4046 1045.1366,-74.9749" style=""></polygon>
</g>
<!-- C2_0 -->
<g id="node7" class="node">
<title style="">C2_0</title>
<g id="a_node7">
<ellipse fill="#d3d247" stroke="#000000" cx="1091" cy="-133.4" rx="27" ry="18" style=""></ellipse>
<text text-anchor="middle" x="1091" y="-129.2" font-family="Times,serif" font-size="14.00" fill="#000000">C2</text>
</g>
</g>
<!-- C2_0&#45;&gt;DirectedMotion_2_9504528359561386930 -->
<g id="edge4" class="edge">
<title style="">C2_0-&gt;DirectedMotion_2_9504528359561386930</title>
<path fill="none" stroke="#112c5f" stroke-width="2" d="M1073.0185,-119.8121C1058.8056,-109.0719 1038.5111,-93.7362 1020.9906,-80.4967" style=""></path>
<polygon fill="#112c5f" stroke="#112c5f" stroke-width="2" points="1022.7397,-77.4315 1012.6513,-74.195 1018.5195,-83.0163 1022.7397,-77.4315" style=""></polygon>
</g>
<!-- C3_0 -->
<g id="node8" class="node">
<title style="">C3_0</title>
<g id="a_node8">
<ellipse fill="#d3d247" stroke="#000000" cx="2622" cy="-133.4" rx="27" ry="18" style=""></ellipse>
<text text-anchor="middle" x="2622" y="-129.2" font-family="Times,serif" font-size="14.00" fill="#000000">C3</text>
</g>
</g>
<!-- C3_0&#45;&gt;DirectedMotion_2_9504528359561386930 -->
<g id="edge5" class="edge">
<title style="">C3_0-&gt;DirectedMotion_2_9504528359561386930</title>
<path fill="none" stroke="#112c5f" stroke-width="2" d="M2600.3913,-122.1137C2594.2798,-119.4235 2587.515,-116.9 2581,-115.4 2430.0118,-80.6375 1326.164,-59.2401 1048.3329,-54.3676" style=""></path>
<polygon fill="#112c5f" stroke="#112c5f" stroke-width="2" points="1048.0885,-50.8629 1038.0289,-54.1879 1047.9663,-57.8618 1048.0885,-50.8629" style=""></polygon>
</g>
<!-- Cr_0 -->
<g id="node9" class="node">
<title style="">Cr_0</title>
<ellipse fill="#d3d247" stroke="#000000" cx="167" cy="-53.3" rx="27" ry="18" style=""></ellipse>
<ellipse fill="none" stroke="#000000" cx="167" cy="-53.3" rx="31" ry="22" style=""></ellipse>
<text text-anchor="middle" x="167" y="-49.1" font-family="Times,serif" font-size="14.00" fill="#000000">Cr</text>
</g>
<!-- Cr_0&#45;&gt;Cr_0 -->
<g id="edge12" class="edge">
<title style="">Cr_0-&gt;Cr_0</title>
<path fill="none" stroke="#38568c" stroke-dasharray="5,2" d="M190.6968,-67.5822C203.8696,-70.2482 216,-65.4875 216,-53.3 216,-41.1125 203.8696,-36.3518 190.6968,-39.0178" style=""></path>
</g>
<!-- NeighborhoodReporter_2_0 -->
<g id="node37" class="node">
<title style="">NeighborhoodReporter_2_0</title>
<g id="a_node37">">
<polygon fill="#fffea3" stroke="transparent" points="999.5,-395.4 852.5,-395.4 852.5,-345.4 999.5,-345.4 999.5,-395.4" style=""></polygon>
<text text-anchor="start" x="856.9375" y="-377.9" font-family="times" font-size="15.00" fill="#000000">NeighborhoodReporter</text>
<text text-anchor="start" x="920.2533" y="-353.9" font-family="times" font-size="15.00" fill="#000000">-1</text>
<polygon fill="#000000" stroke="#000000" points="853,-370.4 853,-370.4 1000,-370.4 1000,-370.4 853,-370.4" style=""></polygon>
<polygon fill="none" stroke="#000000" points="852.5,-345.4 852.5,-395.4 999.5,-395.4 999.5,-345.4 852.5,-345.4" style=""></polygon>
</g>
</g>
<!-- Cr_0&#45;&gt;NeighborhoodReporter_2_0 -->
<g id="edge13" class="edge">
<title style="">Cr_0-&gt;NeighborhoodReporter_2_0</title>
<path fill="none" stroke="#112c5f" stroke-width="2" d="M173.9375,-74.8045C182.1947,-97.0789 198.085,-131.3738 223,-151.4 272.4138,-191.1178 667.3774,-300.7841 842.6855,-348.1432" style=""></path>
<polygon fill="#112c5f" stroke="#112c5f" stroke-width="2" points="841.8225,-351.5355 852.389,-350.7616 843.6462,-344.7772 841.8225,-351.5355" style=""></polygon>
</g>
<!-- De_0 -->
<g id="node10" class="node">
<title style="">De_0</title>
<g id="a_node10">
<ellipse fill="#d3d247" stroke="#000000" cx="2312" cy="-291.4" rx="27" ry="18" style=""></ellipse>
<text text-anchor="middle" x="2312" y="-287.2" font-family="Times,serif" font-size="14.00" fill="#000000">De</text>
</g>
</g>
<!-- De_0&#45;&gt;System_4_1500 -->
<g id="edge15" class="edge">
<title style="">De_0-&gt;System_4_1500</title>
<path fill="none" stroke="#112c5f" stroke-width="2" d="M2291.6622,-279.2982C2286.6985,-276.896 2281.2901,-274.7123 2276,-273.4 2142.8884,-240.3782 1166.7849,-302.3022 1042,-245.4 1040.8112,-244.8579 1039.6487,-244.2439 1038.5143,-243.5698" style=""></path>
<polygon fill="#112c5f" stroke="#112c5f" stroke-width="2" points="1040.4806,-240.6684 1030.3954,-237.4219 1036.2548,-246.249 1040.4806,-240.6684" style=""></polygon>
</g>
<!-- Dr_0 -->
<g id="node11" class="node">
<title style="">Dr_0</title>
<g id="a_node11">
<ellipse fill="#d3d247" stroke="#000000" cx="2240" cy="-291.4" rx="27" ry="18" style=""></ellipse>
<text text-anchor="middle" x="2240" y="-287.2" font-family="Times,serif" font-size="14.00" fill="#000000">Dr</text>
</g>
</g>
<!-- Dr_0&#45;&gt;System_4_1500 -->
<g id="edge16" class="edge">
<title style="">Dr_0-&gt;System_4_1500</title>
<path fill="none" stroke="#112c5f" stroke-width="2" d="M2219.6608,-279.3036C2214.6973,-276.9012 2209.2891,-274.7161 2204,-273.4 2078.6728,-242.2158 1159.4703,-299.0664 1042,-245.4 1040.8116,-244.8571 1039.6494,-244.2423 1038.5153,-243.5676" style=""></path>
<polygon fill="#112c5f" stroke="#112c5f" stroke-width="2" points="1040.4819,-240.6664 1030.3978,-237.4167 1036.2544,-246.2457 1040.4819,-240.6664" style=""></polygon>
</g>
<!-- Dy_0 -->
<g id="node12" class="node">
<title style="">Dy_0</title>
<g id="a_node12">
<ellipse fill="#d3d247" stroke="#000000" cx="2168" cy="-291.4" rx="27" ry="18" style=""></ellipse>
<text text-anchor="middle" x="2168" y="-287.2" font-family="Times,serif" font-size="14.00" fill="#000000">Dy</text>
</g>
</g>
<!-- Dy_0&#45;&gt;System_4_1500 -->
<g id="edge17" class="edge">
<title style="">Dy_0-&gt;System_4_1500</title>
<path fill="none" stroke="#112c5f" stroke-width="2" d="M2147.6593,-279.3097C2142.6958,-276.907 2137.2881,-274.7203 2132,-273.4 2014.457,-244.0534 1152.1559,-295.8308 1042,-245.4 1040.812,-244.8561 1039.6503,-244.2405 1038.5165,-243.5651" style=""></path>
<polygon fill="#112c5f" stroke="#112c5f" stroke-width="2" points="1040.4835,-240.6642 1030.4005,-237.4108 1036.2539,-246.2419 1040.4835,-240.6642" style=""></polygon>
</g>
<!-- E_0 -->
<g id="node13" class="node">
<title style="">E_0</title>
<ellipse fill="#d3d247" stroke="#000000" cx="2600" cy="-641" rx="27" ry="18" style=""></ellipse>
<ellipse fill="none" stroke="#000000" cx="2600" cy="-641" rx="31" ry="22" style=""></ellipse>
<text text-anchor="middle" x="2600" y="-636.8" font-family="Times,serif" font-size="14.00" fill="#000000">E</text>
</g>
<!-- E_0&#45;&gt;CPM_0_1 -->
<g id="edge18" class="edge">
<title style="">E_0-&gt;CPM_0_1</title>
<path fill="none" stroke="#112c5f" stroke-width="2" d="M2569.3241,-636.9633C2450.4931,-621.3259 2020.6482,-564.7613 1890.5598,-547.6426" style=""></path>
<polygon fill="#112c5f" stroke="#112c5f" stroke-width="2" points="1890.6839,-544.1289 1880.3128,-546.2942 1889.7706,-551.069 1890.6839,-544.1289" style=""></polygon>
</g>
<!-- E_0&#45;&gt;E_0 -->
<g id="edge19" class="edge">
<title style="">E_0-&gt;E_0</title>
<path fill="none" stroke="#38568c" stroke-dasharray="5,2" d="M2621.9182,-656.6133C2635.7566,-660.5306 2649,-655.3262 2649,-641 2649,-626.6738 2635.7566,-621.4694 2621.9182,-625.3867" style=""></path>
</g>
<!-- K_0 -->
<g id="node14" class="node">
<title style="">K_0</title>
<g id="a_node14">
<ellipse fill="#d3d247" stroke="#000000" cx="2096" cy="-291.4" rx="27" ry="18" style=""></ellipse>
<text text-anchor="middle" x="2096" y="-287.2" font-family="Times,serif" font-size="14.00" fill="#000000">K</text>
</g>
</g>
<!-- K_0&#45;&gt;System_4_1500 -->
<g id="edge21" class="edge">
<title style="">K_0-&gt;System_4_1500</title>
<path fill="none" stroke="#112c5f" stroke-width="2" d="M2075.6576,-279.3166C2070.6941,-276.9137 2065.2869,-274.7251 2060,-273.4 1950.2409,-245.8909 1144.8417,-292.5952 1042,-245.4 1040.8125,-244.855 1039.6512,-244.2385 1038.5178,-243.5623" style=""></path>
<polygon fill="#112c5f" stroke="#112c5f" stroke-width="2" points="1040.4852,-240.6616 1030.4036,-237.4041 1036.2533,-246.2376 1040.4852,-240.6616" style=""></polygon>
</g>
<!-- Kr_0 -->
<g id="node15" class="node">
<title style="">Kr_0</title>
<g id="a_node15">
<ellipse fill="#d3d247" stroke="#000000" cx="2024" cy="-291.4" rx="27" ry="18" style=""></ellipse>
<text text-anchor="middle" x="2024" y="-287.2" font-family="Times,serif" font-size="14.00" fill="#000000">Kr</text>
</g>
</g>
<!-- Kr_0&#45;&gt;System_4_1500 -->
<g id="edge22" class="edge">
<title style="">Kr_0-&gt;System_4_1500</title>
<path fill="none" stroke="#112c5f" stroke-width="2" d="M2003.6555,-279.3246C1998.6922,-276.9214 1993.2855,-274.7306 1988,-273.4 1886.0246,-247.7284 1137.5278,-289.3598 1042,-245.4 1040.9801,-244.9307 1039.9795,-244.4086 1038.9993,-243.8414" style=""></path>
<polygon fill="#112c5f" stroke="#112c5f" stroke-width="2" points="1040.871,-240.8717 1030.7568,-237.7167 1036.696,-246.4904 1040.871,-240.8717" style=""></polygon>
</g>
<!-- Rtot_0 -->
<g id="node16" class="node">
<title style="">Rtot_0</title>
<g id="a_node16">
<ellipse fill="#d3d247" stroke="#000000" cx="1951" cy="-291.4" rx="27.8461" ry="18" style=""></ellipse>
<text text-anchor="middle" x="1951" y="-287.2" font-family="Times,serif" font-size="14.00" fill="#000000">Rtot</text>
</g>
</g>
<!-- Rtot_0&#45;&gt;System_4_1500 -->
<g id="edge29" class="edge">
<title style="">Rtot_0-&gt;System_4_1500</title>
<path fill="none" stroke="#112c5f" stroke-width="2" d="M1930.0565,-279.3349C1924.9567,-276.9312 1919.4089,-274.7376 1914,-273.4 1819.8961,-250.1278 1130.0111,-286.0347 1042,-245.4 1040.9807,-244.9294 1039.9806,-244.4062 1039.0009,-243.838" style=""></path>
<polygon fill="#112c5f" stroke="#112c5f" stroke-width="2" points="1040.8733,-240.8686 1030.761,-237.7076 1036.6949,-246.4848 1040.8733,-240.8686" style=""></polygon>
</g>
<!-- Ytot_0 -->
<g id="node17" class="node">
<title style="">Ytot_0</title>
<g id="a_node17">
<ellipse fill="#d3d247" stroke="#000000" cx="1877" cy="-291.4" rx="28.4088" ry="18" style=""></ellipse>
<text text-anchor="middle" x="1877" y="-287.2" font-family="Times,serif" font-size="14.00" fill="#000000">Ytot</text>
</g>
</g>
<!-- Ytot_0&#45;&gt;System_4_1500 -->
<g id="edge39" class="edge">
<title style="">Ytot_0-&gt;System_4_1500</title>
<path fill="none" stroke="#112c5f" stroke-width="2" d="M1855.4576,-279.3478C1850.2213,-276.9435 1844.5324,-274.7465 1839,-273.4 1752.9032,-252.4451 1122.3934,-282.6648 1042,-245.4 1040.9814,-244.9279 1039.982,-244.4033 1039.0028,-243.8339" style=""></path>
<polygon fill="#112c5f" stroke="#112c5f" stroke-width="2" points="1040.8761,-240.865 1030.7661,-237.6965 1036.6936,-246.4781 1040.8761,-240.865" style=""></polygon>
</g>
<!-- alphaR_0 -->
<g id="node18" class="node">
<title style="">alphaR_0</title>
<g id="a_node18">
<ellipse fill="#d3d247" stroke="#000000" cx="1792" cy="-291.4" rx="38.2818" ry="18" style=""></ellipse>
<text text-anchor="middle" x="1792" y="-287.2" font-family="Times,serif" font-size="14.00" fill="#000000">alphaR</text>
</g>
</g>
<!-- alphaR_0&#45;&gt;System_4_1500 -->
<g id="edge40" class="edge">
<title style="">alphaR_0-&gt;System_4_1500</title>
<path fill="none" stroke="#112c5f" stroke-width="2" d="M1764.1144,-279.017C1757.9325,-276.7555 1751.3334,-274.7022 1745,-273.4 1668.4286,-257.6567 1112.8468,-278.4418 1042,-245.4 1040.9825,-244.9255 1039.9841,-244.3988 1039.0057,-243.8275" style=""></path>
<polygon fill="#112c5f" stroke="#112c5f" stroke-width="2" points="1040.8805,-240.8592 1030.7741,-237.6794 1036.6916,-246.4676 1040.8805,-240.8592" style=""></polygon>
</g>
<!-- cell_type_0&#45;&gt;NeighborhoodReporter_2_0 -->
<g id="edge49" class="edge">
<title style="">cell_type_0-&gt;NeighborhoodReporter_2_0</title>
<path fill="none" stroke="#112c5f" stroke-width="2" d="M1204.699,-440.3826C1197.0325,-437.0933 1188.8285,-433.8817 1181,-431.4 1107.6146,-408.1358 1083.634,-415.036 1009.6198,-396.7783" style=""></path>
<polygon fill="#112c5f" stroke="#112c5f" stroke-width="2" points="1010.3947,-393.3641 999.8407,-394.2933 1008.6707,-400.1485 1010.3947,-393.3641" style=""></polygon>
</g>
<!-- celltype_dividingcell_id_0 -->
<g id="node21" class="node">
<title style="">celltype_dividingcell_id_0</title>
<ellipse fill="#d3d247" stroke="#000000" cx="116" cy="-456.4" rx="100.1587" ry="18" style=""></ellipse>
<text text-anchor="middle" x="116" y="-452.2" font-family="Times,serif" font-size="14.00" fill="#000000">celltype.dividingcell.id</text>
</g>
<!-- celltype_dividingcell_id_0&#45;&gt;NeighborhoodReporter_2_0 -->
<g id="edge51" class="edge">
<title style="">celltype_dividingcell_id_0-&gt;NeighborhoodReporter_2_0</title>
<path fill="none" stroke="#112c5f" stroke-width="2" d="M170.9671,-441.2685C186.6925,-437.4637 203.9277,-433.7876 220,-431.4 488.196,-391.5581 561.1384,-437.4309 829,-395.4 833.4199,-394.7065 837.9311,-393.8998 842.4706,-393.0099" style=""></path>
<polygon fill="#112c5f" stroke="#112c5f" stroke-width="2" points="843.3506,-396.4018 852.429,-390.9399 841.926,-389.5483 843.3506,-396.4018" style=""></polygon>
</g>
<!-- celltype_medium_id_0 -->
<g id="node22" class="node">
<title style="">celltype_medium_id_0</title>
<ellipse fill="#d3d247" stroke="#000000" cx="1390" cy="-456.4" rx="85.6937" ry="18" style=""></ellipse>
<text text-anchor="middle" x="1390" y="-452.2" font-family="Times,serif" font-size="14.00" fill="#000000">celltype.medium.id</text>
</g>
<!-- celltype_medium_id_0&#45;&gt;NeighborhoodReporter_2_0 -->
<g id="edge52" class="edge">
<title style="">celltype_medium_id_0-&gt;NeighborhoodReporter_2_0</title>
<path fill="none" stroke="#112c5f" stroke-width="2" d="M1339.5072,-441.7671C1325.2087,-437.9911 1309.5699,-434.2052 1295,-431.4 1170.2802,-407.3874 1133.1487,-422.5916 1009.6372,-396.5616" style=""></path>
<polygon fill="#112c5f" stroke="#112c5f" stroke-width="2" points="1010.3181,-393.1281 999.805,-394.4418 1008.8427,-399.9709 1010.3181,-393.1281" style=""></polygon>
</g>
<!-- frac_0 -->
<g id="node23" class="node">
<title style="">frac_0</title>
<g id="a_node23">
<ellipse fill="#d3d247" stroke="#000000" cx="1709" cy="-291.4" rx="27" ry="18" style=""></ellipse>
<text text-anchor="middle" x="1709" y="-287.2" font-family="Times,serif" font-size="14.00" fill="#000000">frac</text>
</g>
</g>
<!-- frac_0&#45;&gt;System_4_1500 -->
<g id="edge55" class="edge">
<title style="">frac_0-&gt;System_4_1500</title>
<path fill="none" stroke="#112c5f" stroke-width="2" d="M1688.6411,-279.3811C1683.6783,-276.9755 1678.2755,-274.7695 1673,-273.4 1537.1431,-238.1311 1169.0709,-305.0151 1042,-245.4 1040.9836,-244.9232 1039.9861,-244.3945 1039.0086,-243.8213" style=""></path>
<polygon fill="#112c5f" stroke="#112c5f" stroke-width="2" points="1040.8847,-240.8537 1030.7818,-237.6628 1036.6898,-246.4575 1040.8847,-240.8537" style=""></polygon>
</g>
<!-- h_0 -->
<g id="node24" class="node">
<title style="">h_0</title>
<g id="a_node24">
<ellipse fill="#d3d247" stroke="#000000" cx="1637" cy="-291.4" rx="27" ry="18" style=""></ellipse>
<text text-anchor="middle" x="1637" y="-287.2" font-family="Times,serif" font-size="14.00" fill="#000000">h</text>
</g>
</g>
<!-- h_0&#45;&gt;System_4_1500 -->
<g id="edge56" class="edge">
<title style="">h_0-&gt;System_4_1500</title>
<path fill="none" stroke="#112c5f" stroke-width="2" d="M1616.6354,-279.403C1611.6729,-276.9965 1606.2716,-274.7846 1601,-273.4 1480.7022,-241.8039 1154.4508,-298.5478 1042,-245.4 1040.985,-244.9203 1039.9887,-244.389 1039.0122,-243.8136" style=""></path>
<polygon fill="#112c5f" stroke="#112c5f" stroke-width="2" points="1040.8901,-240.8468 1030.7916,-237.642 1036.6875,-246.4449 1040.8901,-240.8468" style=""></polygon>
</g>
<!-- ke_0 -->
<g id="node25" class="node">
<title style="">ke_0</title>
<g id="a_node25">
<ellipse fill="#d3d247" stroke="#000000" cx="1565" cy="-291.4" rx="27" ry="18" style=""></ellipse>
<text text-anchor="middle" x="1565" y="-287.2" font-family="Times,serif" font-size="14.00" fill="#000000">ke</text>
</g>
</g>
<!-- ke_0&#45;&gt;System_4_1500 -->
<g id="edge57" class="edge">
<title style="">ke_0-&gt;System_4_1500</title>
<path fill="none" stroke="#112c5f" stroke-width="2" d="M1544.6279,-279.4312C1539.6657,-277.0235 1534.2665,-274.804 1529,-273.4 1424.2575,-245.4757 1139.8342,-292.0822 1042,-245.4 1040.9867,-244.9165 1039.992,-244.3819 1039.017,-243.8036" style=""></path>
<polygon fill="#112c5f" stroke="#112c5f" stroke-width="2" points="1040.8972,-240.8379 1030.8044,-237.6152 1036.6845,-246.4285 1040.8972,-240.8379" style=""></polygon>
</g>
<!-- kr_0 -->
<g id="node26" class="node">
<title style="">kr_0</title>
<g id="a_node26">
<ellipse fill="#d3d247" stroke="#000000" cx="1493" cy="-291.4" rx="27" ry="18" style=""></ellipse>
<text text-anchor="middle" x="1493" y="-287.2" font-family="Times,serif" font-size="14.00" fill="#000000">kr</text>
</g>
</g>
<!-- kr_0&#45;&gt;System_4_1500 -->
<g id="edge58" class="edge">
<title style="">kr_0-&gt;System_4_1500</title>
<path fill="none" stroke="#112c5f" stroke-width="2" d="M1472.6177,-279.4691C1467.6559,-277.0599 1462.2594,-274.8302 1457,-273.4 1367.807,-249.1459 1125.223,-285.6192 1042,-245.4 1040.9892,-244.9115 1039.9966,-244.3724 1039.0234,-243.7902" style=""></path>
<polygon fill="#112c5f" stroke="#112c5f" stroke-width="2" points="1040.9067,-240.826 1030.8217,-237.5791 1036.6807,-246.4065 1040.9067,-240.826" style=""></polygon>
</g>
<!-- ky_0 -->
<g id="node27" class="node">
<title style="">ky_0</title>
<g id="a_node27">
<ellipse fill="#d3d247" stroke="#000000" cx="1421" cy="-291.4" rx="27" ry="18" style=""></ellipse>
<text text-anchor="middle" x="1421" y="-287.2" font-family="Times,serif" font-size="14.00" fill="#000000">ky</text>
</g>
</g>
<!-- ky_0&#45;&gt;System_4_1500 -->
<g id="edge59" class="edge">
<title style="">ky_0-&gt;System_4_1500</title>
<path fill="none" stroke="#112c5f" stroke-width="2" d="M1400.6029,-279.5228C1395.6417,-277.1113 1390.2492,-274.8672 1385,-273.4 1311.3471,-252.8136 1110.6205,-279.1604 1042,-245.4 1040.9926,-244.9044 1040.0031,-244.359 1039.0327,-243.7712" style=""></path>
<polygon fill="#112c5f" stroke="#112c5f" stroke-width="2" points="1040.9205,-240.8093 1030.8466,-237.5281 1036.6756,-246.3753 1040.9205,-240.8093" style=""></polygon>
</g>
<!-- kye_0 -->
<g id="node28" class="node">
<title style="">kye_0</title>
<g id="a_node28">
<ellipse fill="#d3d247" stroke="#000000" cx="1349" cy="-291.4" rx="27" ry="18" style=""></ellipse>
<text text-anchor="middle" x="1349" y="-287.2" font-family="Times,serif" font-size="14.00" fill="#000000">kye</text>
</g>
</g>
<!-- kye_0&#45;&gt;System_4_1500 -->
<g id="edge60" class="edge">
<title style="">kye_0-&gt;System_4_1500</title>
<path fill="none" stroke="#112c5f" stroke-width="2" d="M1328.5796,-279.6045C1323.6194,-277.1897 1318.2331,-274.9235 1313,-273.4 1196.7411,-239.5533 1150.0673,-300.0186 1042,-245.4 1040.998,-244.8936 1040.0133,-244.3387 1039.0471,-243.7424" style=""></path>
<polygon fill="#112c5f" stroke="#112c5f" stroke-width="2" points="1040.9421,-240.7839 1030.8853,-237.4505 1036.6683,-246.3279 1040.9421,-240.7839" style=""></polygon>
</g>
<!-- kyr_0 -->
<g id="node29" class="node">
<title style="">kyr_0</title>
<g id="a_node29">
<ellipse fill="#d3d247" stroke="#000000" cx="1277" cy="-291.4" rx="27" ry="18" style=""></ellipse>
<text text-anchor="middle" x="1277" y="-287.2" font-family="Times,serif" font-size="14.00" fill="#000000">kyr</text>
</g>
</g>
<!-- kyr_0&#45;&gt;System_4_1500 -->
<g id="edge61" class="edge">
<title style="">kyr_0-&gt;System_4_1500</title>
<path fill="none" stroke="#112c5f" stroke-width="2" d="M1256.1554,-279.5579C1251.3036,-277.2057 1246.0708,-274.9781 1241,-273.4 1155.7189,-246.859 1120.9576,-287.149 1042,-245.4 1041.1615,-244.9566 1040.3346,-244.4802 1039.52,-243.9747" style=""></path>
<polygon fill="#112c5f" stroke="#112c5f" stroke-width="2" points="1041.3602,-240.9741 1031.3028,-237.6425 1037.0874,-246.5188 1041.3602,-240.9741" style=""></polygon>
</g>
<!-- n_0 -->
<g id="node30" class="node">
<title style="">n_0</title>
<g id="a_node30">
<ellipse fill="#d3d247" stroke="#000000" cx="1205" cy="-291.4" rx="27" ry="18" style=""></ellipse>
<text text-anchor="middle" x="1205" y="-287.2" font-family="Times,serif" font-size="14.00" fill="#000000">n</text>
</g>
</g>
<!-- n_0&#45;&gt;System_4_1500 -->
<g id="edge62" class="edge">
<title style="">n_0-&gt;System_4_1500</title>
<path fill="none" stroke="#112c5f" stroke-width="2" d="M1184.0595,-279.8465C1179.2126,-277.4792 1174.0061,-275.1727 1169,-273.4 1114.515,-254.1068 1092.016,-274.3697 1042,-245.4 1041.2086,-244.9416 1040.4263,-244.4552 1039.654,-243.9445" style=""></path>
<polygon fill="#112c5f" stroke="#112c5f" stroke-width="2" points="1041.8063,-241.1843 1031.8007,-237.7002 1037.4498,-246.6634 1041.8063,-241.1843" style=""></polygon>
</g>
<!-- shareprob_0 -->
<g id="node31" class="node">
<title style="">shareprob_0</title>
<g id="a_node31">
<ellipse fill="#d3d247" stroke="#000000" cx="1111" cy="-291.4" rx="49.2183" ry="18" style=""></ellipse>
<text text-anchor="middle" x="1111" y="-287.2" font-family="Times,serif" font-size="14.00" fill="#000000">shareprob</text>
</g>
</g>
<!-- shareprob_0&#45;&gt;System_4_1500 -->
<g id="edge63" class="edge">
<title style="">shareprob_0-&gt;System_4_1500</title>
<path fill="none" stroke="#112c5f" stroke-width="2" d="M1084.6898,-275.994C1071.3426,-267.6597 1055.2055,-256.7618 1042,-245.4 1041.6478,-245.097 1041.2957,-244.7901 1040.9438,-244.4796" style=""></path>
<polygon fill="#112c5f" stroke="#112c5f" stroke-width="2" points="1043.3131,-241.9029 1033.6519,-237.5541 1038.4925,-246.9785 1043.3131,-241.9029" style=""></polygon>
</g>
<!-- size_0 -->
<g id="node32" class="node">
<title style="">size_0</title>
<ellipse fill="#b5b426" stroke="#000000" cx="1456" cy="-815.8" rx="27" ry="18" style=""></ellipse>
<text text-anchor="middle" x="1456" y="-811.6" font-family="Times,serif" font-size="14.00" fill="#000000">size</text>
</g>
<!-- size_x_0 -->
<g id="node33" class="node">
<title style="">size_x_0</title>
<ellipse fill="#d3d247" stroke="#000000" cx="1456" cy="-732" rx="33.0851" ry="18" style=""></ellipse>
<text text-anchor="middle" x="1456" y="-727.8" font-family="Times,serif" font-size="14.00" fill="#000000">size.x</text>
</g>
<!-- size_0&#45;&gt;size_x_0 -->
<g id="edge64" class="edge">
<title style="">size_0-&gt;size_x_0</title>
<path fill="none" stroke="#38568c" stroke-dasharray="5,2" d="M1456,-797.6166C1456,-783.5606 1456,-764.195 1456,-750.1479" style=""></path>
</g>
<!-- CellDeath_2_5386813627640286968_1 -->
<g id="node40" class="node">
<title style="">CellDeath_2_5386813627640286968_1</title>
<g id="a_node40">">
<polygon fill="#fffea3" stroke="transparent" points="1002.5,-678 775.5,-678 775.5,-604 1002.5,-604 1002.5,-678" style=""></polygon>
<text text-anchor="start" x="859.0935" y="-660.5" font-family="times" font-size="15.00" fill="#000000">CellDeath</text>
<text text-anchor="start" x="779.7547" y="-637.5" font-family="times" font-style="italic" font-size="15.00" fill="#000000">'delete cells near right domain edge'</text>
<text text-anchor="start" x="885.75" y="-612.5" font-family="times" font-size="15.00" fill="#000000">1</text>
<polygon fill="#000000" stroke="#000000" points="776,-629 776,-629 1003,-629 1003,-629 776,-629" style=""></polygon>
<polygon fill="none" stroke="#000000" points="775.5,-604 775.5,-678 1002.5,-678 1002.5,-604 775.5,-604" style=""></polygon>
</g>
</g>
<!-- size_x_0&#45;&gt;CellDeath_2_5386813627640286968_1 -->
<g id="edge65" class="edge">
<title style="">size_x_0-&gt;CellDeath_2_5386813627640286968_1</title>
<path fill="none" stroke="#112c5f" stroke-width="2" d="M1422.7011,-730.0989C1349.3534,-725.4647 1168.3275,-711.5786 1012.7776,-679.1827" style=""></path>
<polygon fill="#112c5f" stroke="#112c5f" stroke-width="2" points="1013.0781,-675.6688 1002.57,-677.022 1011.6284,-682.5171 1013.0781,-675.6688" style=""></polygon>
</g>
<!-- size_x_0&#45;&gt;System_4_1500 -->
<g id="edge66" class="edge">
<title style="">size_x_0-&gt;System_4_1500</title>
<path fill="none" stroke="#112c5f" stroke-width="2" d="M1489.3669,-729.8322C1582.4315,-723.5217 1843.3769,-703.9531 1925,-678 2091.2978,-625.1236 2720.2763,-397.8965 2598,-273.4 2537.4171,-211.7171 1120.7496,-281.087 1042,-245.4 1040.8099,-244.8607 1039.6464,-244.2491 1038.511,-243.5771" style=""></path>
<polygon fill="#112c5f" stroke="#112c5f" stroke-width="2" points="1040.4761,-240.6751 1030.3875,-237.4394 1036.2563,-246.2602 1040.4761,-240.6751" style=""></polygon>
</g>
<!-- stoptime_0 -->
<g id="node34" class="node">
<title style="">stoptime_0</title>
<ellipse fill="#d3d247" stroke="#000000" cx="2545" cy="-291.4" rx="44.0987" ry="18" style=""></ellipse>
<text text-anchor="middle" x="2545" y="-287.2" font-family="Times,serif" font-size="14.00" fill="#000000">stoptime</text>
</g>
<!-- stoptime_0&#45;&gt;System_4_1500 -->
<g id="edge67" class="edge">
<title style="">stoptime_0-&gt;System_4_1500</title>
<path fill="none" stroke="#112c5f" stroke-width="2" d="M2513.183,-278.832C2506.2996,-276.613 2498.9875,-274.6236 2492,-273.4 2412.637,-259.5026 1115.3648,-278.7049 1042,-245.4 1040.8103,-244.8599 1039.647,-244.2476 1038.512,-243.575" style=""></path>
<polygon fill="#112c5f" stroke="#112c5f" stroke-width="2" points="1040.4774,-240.6732 1030.3897,-237.4345 1036.2559,-246.2571 1040.4774,-240.6732" style=""></polygon>
</g>
<!-- time_0 -->
<g id="node35" class="node">
<title style="">time_0</title>
<g id="a_node35">
<ellipse fill="#d3d247" stroke="#000000" cx="188" cy="-732" rx="28.4069" ry="18" style=""></ellipse>
<text text-anchor="middle" x="188" y="-727.8" font-family="Times,serif" font-size="14.00" fill="#000000">time</text>
</g>
</g>
<!-- CellDivision_2_1 -->
<g id="node38" class="node">
<title style="">CellDivision_2_1</title>
<g id="a_node38">">
<polygon fill="#fffea3" stroke="transparent" points="717,-666 633,-666 633,-616 717,-616 717,-666" style=""></polygon>
<text text-anchor="start" x="636.6668" y="-648.5" font-family="times" font-size="15.00" fill="#000000">CellDivision</text>
<text text-anchor="start" x="671.25" y="-624.5" font-family="times" font-size="15.00" fill="#000000">1</text>
<polygon fill="#000000" stroke="#000000" points="633,-641 633,-641 717,-641 717,-641 633,-641" style=""></polygon>
<polygon fill="none" stroke="#000000" points="633,-616 633,-666 717,-666 717,-616 633,-616" style=""></polygon>
</g>
</g>
<!-- time_0&#45;&gt;CellDivision_2_1 -->
<g id="edge68" class="edge">
<title style="">time_0-&gt;CellDivision_2_1</title>
<path fill="none" stroke="#112c5f" stroke-width="2" d="M208.1519,-719.2628C211.977,-717.2538 216.0279,-715.386 220,-714 360.2722,-665.0524 536.459,-648.705 622.6449,-643.4179" style=""></path>
<polygon fill="#112c5f" stroke="#112c5f" stroke-width="2" points="622.9235,-646.9077 632.7007,-642.8266 622.5125,-639.9198 622.9235,-646.9077" style=""></polygon>
</g>
<!-- tlim_0 -->
<g id="node36" class="node">
<title style="">tlim_0</title>
<g id="a_node36">
<ellipse fill="#d3d247" stroke="#000000" cx="2456" cy="-291.4" rx="27" ry="18" style=""></ellipse>
<text text-anchor="middle" x="2456" y="-287.2" font-family="Times,serif" font-size="14.00" fill="#000000">tlim</text>
</g>
</g>
<!-- tlim_0&#45;&gt;System_4_1500 -->
<g id="edge69" class="edge">
<title style="">tlim_0-&gt;System_4_1500</title>
<path fill="none" stroke="#112c5f" stroke-width="2" d="M2435.6644,-279.2891C2430.7007,-276.8873 2425.2916,-274.7061 2420,-273.4 2271.3191,-236.7028 1181.4146,-308.7739 1042,-245.4 1040.8105,-244.8593 1039.6475,-244.2465 1038.5127,-243.5734" style=""></path>
<polygon fill="#112c5f" stroke="#112c5f" stroke-width="2" points="1040.4783,-240.6718 1030.3914,-237.4307 1036.2556,-246.2547 1040.4783,-240.6718" style=""></polygon>
</g>
<!-- M_2 -->
<g id="node44" class="node">
<title style="">M_2</title>
<g id="a_node44">
<ellipse fill="#d3d247" stroke="#000000" cx="934" cy="-291.4" rx="27" ry="18" style=""></ellipse>
<text text-anchor="middle" x="934" y="-287.2" font-family="Times,serif" font-size="14.00" fill="#000000">M</text>
</g>
</g>
<!-- NeighborhoodReporter_2_0&#45;&gt;M_2 -->
<g id="edge25" class="edge">
<title style="">NeighborhoodReporter_2_0-&gt;M_2</title>
<path fill="none" stroke="#8f100d" stroke-width="3" d="M928.5753,-344.9691C929.3975,-336.85 930.312,-327.8187 931.1524,-319.5201" style=""></path>
<polygon fill="#8f100d" stroke="#8f100d" stroke-width="3" points="934.6392,-319.826 932.1646,-309.5242 927.6749,-319.1207 934.6392,-319.826" style=""></polygon>
</g>
<!-- av_2 -->
<g id="node47" class="node">
<title style="">av_2</title>
<g id="a_node47">
<ellipse fill="#d3d247" stroke="#000000" cx="862" cy="-291.4" rx="27" ry="18" style=""></ellipse>
<text text-anchor="middle" x="862" y="-287.2" font-family="Times,serif" font-size="14.00" fill="#000000">av</text>
</g>
</g>
<!-- NeighborhoodReporter_2_0&#45;&gt;av_2 -->
<g id="edge26" class="edge">
<title style="">NeighborhoodReporter_2_0-&gt;av_2</title>
<path fill="none" stroke="#8f100d" stroke-width="3" d="M905.3977,-344.9691C897.7103,-335.4799 889.0134,-324.7447 881.4345,-315.3894" style=""></path>
<polygon fill="#8f100d" stroke="#8f100d" stroke-width="3" points="884.1299,-313.1564 875.1155,-307.5894 878.6907,-317.5628 884.1299,-313.1564" style=""></polygon>
</g>
<!-- neigh_2 -->
<g id="node56" class="node">
<title style="">neigh_2</title>
<g id="a_node56">
<ellipse fill="#d3d247" stroke="#000000" cx="1011" cy="-291.4" rx="32.4846" ry="18" style=""></ellipse>
<text text-anchor="middle" x="1011" y="-287.2" font-family="Times,serif" font-size="14.00" fill="#000000">neigh</text>
</g>
</g>
<!-- NeighborhoodReporter_2_0&#45;&gt;neigh_2 -->
<g id="edge27" class="edge">
<title style="">NeighborhoodReporter_2_0-&gt;neigh_2</title>
<path fill="none" stroke="#8f100d" stroke-width="3" d="M953.3624,-344.9691C964.1137,-334.9767 976.3516,-323.6026 986.777,-313.9131" style=""></path>
<polygon fill="#8f100d" stroke="#8f100d" stroke-width="3" points="989.3992,-316.2543 994.3414,-306.8827 984.6337,-311.1268 989.3992,-316.2543" style=""></polygon>
</g>
<!-- cell_center_2 -->
<g id="node50" class="node">
<title style="">cell_center_2</title>
<ellipse fill="#b5b426" stroke="#000000" cx="852" cy="-542.7" rx="50.9572" ry="18" style=""></ellipse>
<text text-anchor="middle" x="852" y="-538.5" font-family="Times,serif" font-size="14.00" fill="#000000">cell.center</text>
</g>
<!-- CellDivision_2_1&#45;&gt;cell_center_2 -->
<g id="edge11" class="edge">
<title style="">CellDivision_2_1-&gt;cell_center_2</title>
<path fill="none" stroke="#8f100d" stroke-width="3" d="M717.3959,-617.4547C747.3887,-600.7977 787.1832,-578.6971 815.7111,-562.8537" style=""></path>
<polygon fill="#8f100d" stroke="#8f100d" stroke-width="3" points="817.5079,-565.8594 824.5508,-557.9444 814.1092,-559.7398 817.5079,-565.8594" style=""></polygon>
</g>
<!-- MotilityReporter_2_50 -->
<g id="node39" class="node">
<title style="">MotilityReporter_2_50</title>
<g id="a_node39">">
<polygon fill="#fffea3" stroke="transparent" points="869.5,-481.4 760.5,-481.4 760.5,-431.4 869.5,-431.4 869.5,-481.4" style=""></polygon>
<text text-anchor="start" x="764.674" y="-463.9" font-family="times" font-size="15.00" fill="#000000">MotilityReporter</text>
<text text-anchor="start" x="808" y="-439.9" font-family="times" font-size="15.00" fill="#000000">50</text>
<polygon fill="#000000" stroke="#000000" points="761,-456.4 761,-456.4 870,-456.4 870,-456.4 761,-456.4" style=""></polygon>
<polygon fill="none" stroke="#000000" points="760.5,-431.4 760.5,-481.4 869.5,-481.4 869.5,-431.4 760.5,-431.4" style=""></polygon>
</g>
</g>
<!-- d_2 -->
<g id="node53" class="node">
<title style="">d_2</title>
<g id="a_node53">
<ellipse fill="#b5b426" stroke="#000000" cx="793" cy="-370.4" rx="27" ry="18" style=""></ellipse>
<text text-anchor="middle" x="793" y="-366.2" font-family="Times,serif" font-size="14.00" fill="#000000">d</text>
</g>
</g>
<!-- MotilityReporter_2_50&#45;&gt;d_2 -->
<g id="edge24" class="edge">
<title style="">MotilityReporter_2_50-&gt;d_2</title>
<path fill="none" stroke="#8f100d" stroke-width="3" d="M808.5183,-431.0623C805.8756,-420.7318 802.8118,-408.7552 800.1081,-398.1863" style=""></path>
<polygon fill="#8f100d" stroke="#8f100d" stroke-width="3" points="803.4226,-397.0203 797.5534,-388.1997 796.641,-398.7552 803.4226,-397.0203" style=""></polygon>
</g>
<!-- CellDeath_2_5386813627640286968_1&#45;&gt;cell_center_2 -->
<g id="edge10" class="edge">
<title style="">CellDeath_2_5386813627640286968_1-&gt;cell_center_2</title>
<path fill="none" stroke="#8f100d" stroke-width="3" d="M875.0119,-603.837C870.7937,-592.6302 866.2422,-580.538 862.3094,-570.0896" style=""></path>
<polygon fill="#8f100d" stroke="#8f100d" stroke-width="3" points="865.5579,-568.7843 858.7595,-560.6583 859.0066,-571.2502 865.5579,-568.7843" style=""></polygon>
</g>
<!-- Cr_2 -->
<g id="node42" class="node">
<title style="">Cr_2</title>
<g id="a_node42">
<ellipse fill="#d3d247" stroke="#000000" cx="517" cy="-133.4" rx="27" ry="18" style=""></ellipse>
<text text-anchor="middle" x="517" y="-129.2" font-family="Times,serif" font-size="14.00" fill="#000000">Cr</text>
</g>
</g>
<!-- Cr_2&#45;&gt;Cr_0 -->
<g id="edge14" class="edge">
<title style="">Cr_2-&gt;Cr_0</title>
<path fill="none" stroke="#38568c" stroke-dasharray="5,2" d="M496.0876,-121.7656C491.2393,-119.4025 486.0251,-117.1181 481,-115.4 380.5698,-81.0619 255.2103,-63.3944 198.0258,-56.6363" style=""></path>
</g>
<!-- E_2 -->
<g id="node43" class="node">
<title style="">E_2</title>
<g id="a_node43">
<ellipse fill="#d3d247" stroke="#000000" cx="1019" cy="-133.4" rx="27" ry="18" style=""></ellipse>
<text text-anchor="middle" x="1019" y="-129.2" font-family="Times,serif" font-size="14.00" fill="#000000">E</text>
</g>
</g>
<!-- E_2&#45;&gt;E_0 -->
<g id="edge20" class="edge">
<title style="">E_2-&gt;E_0</title>
<path fill="none" stroke="#38568c" stroke-dasharray="5,2" d="M1038.0633,-146.2278C1041.8785,-148.2809 1045.9597,-150.1411 1050,-151.4 1713.9651,-358.2854 1937.9614,-94.4719 2610,-273.4 2628.0587,-278.2081 2648,-272.7122 2648,-291.4 2648,-456.4 2648,-456.4 2648,-456.4 2648,-517.3303 2623.2031,-586.038 2609.2549,-619.8663" style=""></path>
</g>
<!-- M_2&#45;&gt;System_4_1500 -->
<g id="edge23" class="edge">
<title style="">M_2-&gt;System_4_1500</title>
<path fill="none" stroke="#112c5f" stroke-width="2" d="M949.8288,-276.7506C959.3161,-267.8429 971.5304,-256.1487 982,-245.4 982.1553,-245.2405 982.3109,-245.0805 982.4668,-244.9199" style=""></path>
<polygon fill="#112c5f" stroke="#112c5f" stroke-width="2" points="985.226,-247.0971 989.5746,-237.4359 980.1503,-242.2766 985.226,-247.0971" style=""></polygon>
</g>
<!-- R_2 -->
<g id="node45" class="node">
<title style="">R_2</title>
<g id="a_node45">
<ellipse fill="#d3d247" stroke="#000000" cx="589" cy="-133.4" rx="27" ry="18" style=""></ellipse>
<text text-anchor="middle" x="589" y="-129.2" font-family="Times,serif" font-size="14.00" fill="#000000">R</text>
</g>
</g>
<!-- R_2&#45;&gt;DirectedMotion_2_9504528359561386930 -->
<g id="edge28" class="edge">
<title style="">R_2-&gt;DirectedMotion_2_9504528359561386930</title>
<path fill="none" stroke="#112c5f" stroke-width="2" d="M609.3414,-121.3124C614.3049,-118.9096 619.7124,-116.7221 625,-115.4 657.6725,-107.2304 896.8871,-120.2928 928,-107.4 941.258,-101.906 953.2441,-91.7932 962.7653,-81.7847" style=""></path>
<polygon fill="#112c5f" stroke="#112c5f" stroke-width="2" points="965.4712,-84.0098 969.5459,-74.2298 960.2617,-79.3342 965.4712,-84.0098" style=""></polygon>
</g>
<!-- Y_2 -->
<g id="node46" class="node">
<title style="">Y_2</title>
<g id="a_node46">
<ellipse fill="#d3d247" stroke="#000000" cx="661" cy="-133.4" rx="27" ry="18" style=""></ellipse>
<text text-anchor="middle" x="661" y="-129.2" font-family="Times,serif" font-size="14.00" fill="#000000">Y</text>
</g>
</g>
<!-- av_2&#45;&gt;System_4_1500 -->
<g id="edge41" class="edge">
<title style="">av_2-&gt;System_4_1500</title>
<path fill="none" stroke="#112c5f" stroke-width="2" d="M883.4711,-280.043C888.1992,-277.7177 893.2227,-275.3788 898,-273.4 934.3572,-258.3403 949.0262,-266.8795 982,-245.4 982.6325,-244.988 983.2604,-244.5594 983.8831,-244.1163" style=""></path>
<polygon fill="#112c5f" stroke="#112c5f" stroke-width="2" points="986.1767,-246.7612 991.6373,-237.6819 981.7066,-241.3742 986.1767,-246.7612" style=""></polygon>
</g>
<!-- avspeed_2 -->
<g id="node48" class="node">
<title style="">avspeed_2</title>
<g id="a_node48">
<ellipse fill="#d3d247" stroke="#000000" cx="748" cy="-133.4" rx="42.2758" ry="18" style=""></ellipse>
<text text-anchor="middle" x="748" y="-129.2" font-family="Times,serif" font-size="14.00" fill="#000000">avspeed</text>
</g>
</g>
<!-- avspeed2_2 -->
<g id="node49" class="node">
<title style="">avspeed2_2</title>
<g id="a_node49">
<ellipse fill="#d3d247" stroke="#000000" cx="855" cy="-133.4" rx="46.9323" ry="18" style=""></ellipse>
<text text-anchor="middle" x="855" y="-129.2" font-family="Times,serif" font-size="14.00" fill="#000000">avspeed2</text>
</g>
</g>
<!-- cell_center_2&#45;&gt;cell_center_0 -->
<g id="edge44" class="edge">
<title style="">cell_center_2-&gt;cell_center_0</title>
<path fill="none" stroke="#38568c" stroke-dasharray="5,2" d="M881.2467,-527.9515C889.446,-524.1747 898.4564,-520.3512 907,-517.4 972.2113,-494.8746 992.4545,-502.9334 1058,-481.4 1065.3983,-478.9695 1073.1619,-475.999 1080.538,-472.9655" style=""></path>
</g>
<!-- cell_center_2&#45;&gt;NeighborhoodReporter_2_0 -->
<g id="edge43" class="edge">
<title style="">cell_center_2-&gt;NeighborhoodReporter_2_0</title>
<path fill="none" stroke="#112c5f" stroke-width="2" d="M859.9836,-524.7583C865.3945,-512.5532 872.6829,-496.0258 879,-481.4 890.0591,-455.7951 902.342,-426.7653 911.577,-404.8168" style=""></path>
<polygon fill="#112c5f" stroke="#112c5f" stroke-width="2" points="914.8144,-406.147 915.4628,-395.572 908.3613,-403.4346 914.8144,-406.147" style=""></polygon>
</g>
<!-- cell_center_2&#45;&gt;MotilityReporter_2_50 -->
<g id="edge42" class="edge">
<title style="">cell_center_2-&gt;MotilityReporter_2_50</title>
<path fill="none" stroke="#112c5f" stroke-width="2" d="M844.3336,-524.8186C840.1332,-515.0216 834.7825,-502.5413 829.804,-490.9294" style=""></path>
<polygon fill="#112c5f" stroke="#112c5f" stroke-width="2" points="832.9004,-489.2692 825.7431,-481.4575 826.4668,-492.0276 832.9004,-489.2692" style=""></polygon>
</g>
<!-- cell_center_x_2 -->
<g id="node51" class="node">
<title style="">cell_center_x_2</title>
<ellipse fill="#d3d247" stroke="#000000" cx="746" cy="-732" rx="58.4435" ry="18" style=""></ellipse>
<text text-anchor="middle" x="746" y="-727.8" font-family="Times,serif" font-size="14.00" fill="#000000">cell.center.x</text>
</g>
<!-- cell_center_2&#45;&gt;cell_center_x_2 -->
<g id="edge45" class="edge">
<title style="">cell_center_2-&gt;cell_center_x_2</title>
<path fill="none" stroke="#38568c" stroke-dasharray="5,2" d="M821.2294,-557.0727C802.5199,-567.4467 779.8326,-583.2704 767,-604 745.6644,-638.4653 743.9499,-687.745 744.8123,-713.9673" style=""></path>
</g>
<!-- cell_center_x_2&#45;&gt;CellDivision_2_1 -->
<g id="edge47" class="edge">
<title style="">cell_center_x_2-&gt;CellDivision_2_1</title>
<path fill="none" stroke="#112c5f" stroke-width="2" d="M732.3105,-714.4543C723.4339,-703.0773 711.587,-687.8932 700.9688,-674.2839" style=""></path>
<polygon fill="#112c5f" stroke="#112c5f" stroke-width="2" points="703.4646,-671.793 694.5537,-666.0618 697.9457,-676.099 703.4646,-671.793" style=""></polygon>
</g>
<!-- cell_center_x_2&#45;&gt;CellDeath_2_5386813627640286968_1 -->
<g id="edge46" class="edge">
<title style="">cell_center_x_2-&gt;CellDeath_2_5386813627640286968_1</title>
<path fill="none" stroke="#112c5f" stroke-width="2" d="M771.5655,-715.731C785.7184,-706.7246 804.0353,-695.0684 821.9751,-683.6522" style=""></path>
<polygon fill="#112c5f" stroke="#112c5f" stroke-width="2" points="824.1742,-686.4014 830.7317,-678.0798 820.416,-680.4958 824.1742,-686.4014" style=""></polygon>
</g>
<!-- cell_center_x_2&#45;&gt;System_4_1500 -->
<g id="edge48" class="edge">
<title style="">cell_center_x_2-&gt;System_4_1500</title>
<path fill="none" stroke="#112c5f" stroke-width="2" d="M744.0342,-713.5256C742.9894,-703.1047 741.7662,-689.8383 741,-678 737.1134,-617.9513 736,-602.8744 736,-542.7 736,-542.7 736,-542.7 736,-370.4 736,-327.0604 717.2908,-305.8669 746,-273.4 776.0274,-239.4423 909.7767,-222.1684 975.4179,-215.6092" style=""></path>
<polygon fill="#112c5f" stroke="#112c5f" stroke-width="2" points="976.1014,-219.0595 985.7177,-214.6123 975.427,-212.092 976.1014,-219.0595" style=""></polygon>
</g>
<!-- cell_type_2 -->
<g id="node52" class="node">
<title style="">cell_type_2</title>
<g id="a_node52">
<ellipse fill="#d3d247" stroke="#000000" cx="1002" cy="-732" rx="44.0377" ry="18" style=""></ellipse>
<text text-anchor="middle" x="1002" y="-727.8" font-family="Times,serif" font-size="14.00" fill="#000000">cell.type</text>
</g>
</g>
<!-- cell_type_2&#45;&gt;cell_type_0 -->
<g id="edge50" class="edge">
<title style="">cell_type_2-&gt;cell_type_0</title>
<path fill="none" stroke="#38568c" stroke-dasharray="5,2" d="M1016.7629,-714.76C1058.2371,-666.3266 1175.6871,-529.1688 1220.4108,-476.9406" style=""></path>
</g>
<!-- d_abs_2 -->
<g id="node54" class="node">
<title style="">d_abs_2</title>
<ellipse fill="#d3d247" stroke="#000000" cx="786" cy="-291.4" rx="31.3007" ry="18" style=""></ellipse>
<text text-anchor="middle" x="786" y="-287.2" font-family="Times,serif" font-size="14.00" fill="#000000">d.abs</text>
</g>
<!-- d_2&#45;&gt;d_abs_2 -->
<g id="edge53" class="edge">
<title style="">d_2-&gt;d_abs_2</title>
<path fill="none" stroke="#38568c" stroke-dasharray="5,2" d="M791.3765,-352.0772C790.2456,-339.3146 788.7437,-322.3642 787.6147,-309.6234" style=""></path>
</g>
<!-- d_abs_2&#45;&gt;System_4_1500 -->
<g id="edge54" class="edge">
<title style="">d_abs_2-&gt;System_4_1500</title>
<path fill="none" stroke="#112c5f" stroke-width="2" d="M809.7429,-279.5695C815.0035,-277.2736 820.6168,-275.0665 826,-273.4 893.2904,-252.568 920.3614,-279.4978 982,-245.4 982.83,-244.9409 983.6492,-244.4501 984.4568,-243.9318" style=""></path>
<polygon fill="#112c5f" stroke="#112c5f" stroke-width="2" points="986.9269,-246.4421 992.6258,-237.5104 982.6009,-240.9388 986.9269,-246.4421" style=""></polygon>
</g>
<!-- dist_2 -->
<g id="node55" class="node">
<title style="">dist_2</title>
<g id="a_node55">
<ellipse fill="#d3d247" stroke="#000000" cx="947" cy="-133.4" rx="27" ry="18" style=""></ellipse>
<text text-anchor="middle" x="947" y="-129.2" font-family="Times,serif" font-size="14.00" fill="#000000">dist</text>
</g>
</g>
<!-- truavspeed_2 -->
<g id="node57" class="node">
<title style="">truavspeed_2</title>
<g id="a_node57">
<ellipse fill="#d3d247" stroke="#000000" cx="285" cy="-133.4" rx="52.7295" ry="18" style=""></ellipse>
<text text-anchor="middle" x="285" y="-129.2" font-family="Times,serif" font-size="14.00" fill="#000000">truavspeed</text>
</g>
</g>
<!-- truavspeed2_2 -->
<g id="node58" class="node">
<title style="">truavspeed2_2</title>
<g id="a_node58">
<ellipse fill="#d3d247" stroke="#000000" cx="414" cy="-133.4" rx="57.8868" ry="18" style=""></ellipse>
<text text-anchor="middle" x="414" y="-129.2" font-family="Times,serif" font-size="14.00" fill="#000000">truavspeed2</text>
</g>
</g>
<!-- System_4_1500&#45;&gt;Cr_2 -->
<g id="edge30" class="edge">
<title style="">System_4_1500-&gt;Cr_2</title>
<path fill="none" stroke="#8f100d" stroke-width="3" d="M993.1821,-187.213C989.7978,-184.1097 986.0455,-181.3496 982,-179.4 895.9365,-137.9244 645.216,-176.3676 553,-151.4 550.8627,-150.8213 548.703,-150.1101 546.5591,-149.3081" style=""></path>
<polygon fill="#8f100d" stroke="#8f100d" stroke-width="3" points="547.9478,-146.0954 537.38,-145.3393 545.1697,-152.5206 547.9478,-146.0954" style=""></polygon>
</g>
<!-- System_4_1500&#45;&gt;E_2 -->
<g id="edge31" class="edge">
<title style="">System_4_1500-&gt;E_2</title>
<path fill="none" stroke="#8f100d" stroke-width="3" d="M1014.2534,-186.9691C1014.9728,-178.85 1015.773,-169.8187 1016.5083,-161.5201" style=""></path>
<polygon fill="#8f100d" stroke="#8f100d" stroke-width="3" points="1019.9977,-161.7941 1017.3941,-151.5242 1013.025,-161.1762 1019.9977,-161.7941" style=""></polygon>
</g>
<!-- System_4_1500&#45;&gt;R_2 -->
<g id="edge32" class="edge">
<title style="">System_4_1500-&gt;R_2</title>
<path fill="none" stroke="#8f100d" stroke-width="3" d="M993.1591,-187.2604C989.7779,-184.1506 986.0327,-181.3761 982,-179.4 910.541,-144.3842 701.6736,-172.6992 625,-151.4 622.8666,-150.8073 620.7097,-150.0856 618.5679,-149.2759" style=""></path>
<polygon fill="#8f100d" stroke="#8f100d" stroke-width="3" points="619.9601,-146.0647 609.3937,-145.2894 617.1703,-152.4848 619.9601,-146.0647" style=""></polygon>
</g>
<!-- System_4_1500&#45;&gt;Y_2 -->
<g id="edge33" class="edge">
<title style="">System_4_1500-&gt;Y_2</title>
<path fill="none" stroke="#8f100d" stroke-width="3" d="M993.1239,-187.3314C989.7476,-184.2118 986.013,-181.4156 982,-179.4 868.2636,-122.2744 819.292,-186.6701 697,-151.4 694.8725,-150.7864 692.7201,-150.0489 690.5816,-149.2276" style=""></path>
<polygon fill="#8f100d" stroke="#8f100d" stroke-width="3" points="691.9791,-146.0188 681.4149,-145.2146 689.1718,-152.4312 691.9791,-146.0188" style=""></polygon>
</g>
<!-- System_4_1500&#45;&gt;avspeed_2 -->
<g id="edge35" class="edge">
<title style="">System_4_1500-&gt;avspeed_2</title>
<path fill="none" stroke="#8f100d" stroke-width="3" d="M992.6747,-187.1997C989.4056,-184.1819 985.8208,-181.4498 982,-179.4 909.4951,-140.5025 878.8116,-171.4022 799,-151.4 795.6657,-150.5644 792.2421,-149.5996 788.8228,-148.5598" style=""></path>
<polygon fill="#8f100d" stroke="#8f100d" stroke-width="3" points="789.868,-145.2194 779.2762,-145.4753 787.7158,-151.8803 789.868,-145.2194" style=""></polygon>
</g>
<!-- System_4_1500&#45;&gt;avspeed2_2 -->
<g id="edge34" class="edge">
<title style="">System_4_1500-&gt;avspeed2_2</title>
<path fill="none" stroke="#8f100d" stroke-width="3" d="M991.5829,-187.2005C988.5689,-184.3329 985.345,-181.6409 982,-179.4 974.8184,-174.589 933.78,-160.0604 900.2673,-148.604" style=""></path>
<polygon fill="#8f100d" stroke="#8f100d" stroke-width="3" points="901.1972,-145.2233 890.6027,-145.3134 898.941,-151.8498 901.1972,-145.2233" style=""></polygon>
</g>
<!-- System_4_1500&#45;&gt;dist_2 -->
<g id="edge36" class="edge">
<title style="">System_4_1500-&gt;dist_2</title>
<path fill="none" stroke="#8f100d" stroke-width="3" d="M991.0758,-186.9691C983.2683,-177.4799 974.4355,-166.7447 966.7381,-157.3894" style=""></path>
<polygon fill="#8f100d" stroke="#8f100d" stroke-width="3" points="969.3768,-155.0878 960.3204,-149.5894 963.9713,-159.5353 969.3768,-155.0878" style=""></polygon>
</g>
<!-- System_4_1500&#45;&gt;truavspeed_2 -->
<g id="edge38" class="edge">
<title style="">System_4_1500-&gt;truavspeed_2</title>
<path fill="none" stroke="#8f100d" stroke-width="3" d="M993.2187,-187.1362C989.8293,-184.0435 986.0659,-181.3068 982,-179.4 918.0584,-149.4128 416.6844,-162.8825 347,-151.4 342.3379,-150.6318 337.5299,-149.6285 332.7506,-148.4883" style=""></path>
<polygon fill="#8f100d" stroke="#8f100d" stroke-width="3" points="333.5934,-145.0912 323.0365,-145.9873 331.848,-151.8701 333.5934,-145.0912" style=""></polygon>
</g>
<!-- System_4_1500&#45;&gt;truavspeed2_2 -->
<g id="edge37" class="edge">
<title style="">System_4_1500-&gt;truavspeed2_2</title>
<path fill="none" stroke="#8f100d" stroke-width="3" d="M993.1984,-187.179C989.8119,-184.0804 986.0546,-181.3307 982,-179.4 881.324,-131.4607 591.098,-169.071 481,-151.4 475.9272,-150.5858 470.6848,-149.5432 465.47,-148.3709" style=""></path>
<polygon fill="#8f100d" stroke="#8f100d" stroke-width="3" points="466.0687,-144.9152 455.5278,-145.9826 464.4336,-151.7216 466.0687,-144.9152" style=""></polygon>
</g>
</g>
</svg>