<?xml version="1.0" encoding="UTF-8" standalone="no"?> <svg xmlns="http://www.w3.org/2000/svg" xmlns:xlink="http://www.w3.org/1999/xlink" width="200pt" height="466pt" viewBox="0.00 0.00 200.00 466.40">
<g id="graph0" class="graph" transform="scale(1 1) rotate(0) translate(4 462.4)">
<title>%0</title>
<polygon fill="#ffffff" stroke="transparent" points="-4,4 -4,-462.4 196,-462.4 196,4 -4,4"></polygon>
<g id="clust1" class="cluster">
<title>cluster</title>
<polygon fill="#234178" fill-opacity="0.184314" stroke="#000000" points="8,-8 8,-450.4 184,-450.4 184,-8 8,-8"></polygon>
<text text-anchor="middle" x="96" y="-433.8" font-family="Times,serif" font-size="14.00" fill="#000000">Global</text>
</g>
<g id="clust2" class="cluster">
<title>cluster_1</title>
<polygon fill="#234178" fill-opacity="0.184314" stroke="#000000" points="106,-166 106,-332.8 176,-332.8 176,-166 106,-166"></polygon>
<text text-anchor="middle" x="141" y="-316.2" font-family="Times,serif" font-size="14.00" fill="#000000">System</text>
</g>
<g id="clust3" class="cluster">
<title>cluster_2</title>
<polygon fill="#234178" fill-opacity="0.184314" stroke="#000000" points="16,-340.8 16,-417.6 119,-417.6 119,-340.8 16,-340.8"></polygon>
<text text-anchor="middle" x="67.5" y="-401" font-family="Times,serif" font-size="14.00" fill="#000000">CellType[cells]</text>
</g>
<!-- Gnuplotter_0_1 -->
<g id="node1" class="node">
<title>Gnuplotter_0_1</title>
<g id="a_node1">
<polygon fill="#fffea3" stroke="transparent" points="122,-66 50,-66 50,-16 122,-16 122,-66"></polygon>
<text text-anchor="start" x="53.507" y="-48.5" font-family="times" font-size="15.00" fill="#000000">Gnuplotter</text>
<text text-anchor="start" x="82.25" y="-24.5" font-family="times" font-size="15.00" fill="#000000">1</text>
<polygon fill="#000000" stroke="#000000" points="50,-41 50,-41 122,-41 122,-41 50,-41"></polygon>
<polygon fill="none" stroke="#000000" points="50,-16 50,-66 122,-66 122,-16 50,-16"></polygon>
</g>
</g>
<!-- cell_0 -->
<g id="node2" class="node">
<title>cell_0</title>
<ellipse fill="#d3d247" stroke="#000000" cx="47" cy="-282" rx="27" ry="18"></ellipse>
<ellipse fill="none" stroke="#000000" cx="47" cy="-282" rx="31" ry="22"></ellipse>
<text text-anchor="middle" x="47" y="-277.8" font-family="Times,serif" font-size="14.00" fill="#000000">cell</text>
</g>
<!-- cell_0&#45;&gt;Gnuplotter_0_1 -->
<g id="edge2" class="edge">
<title>cell_0-&gt;Gnuplotter_0_1</title>
<path fill="none" stroke="#112c5f" stroke-width="2" d="M49.6939,-260.0349C53.9697,-226.0513 62.8702,-158.7258 73,-102 74.5021,-93.5882 76.3135,-84.566 78.1007,-76.109"></path>
<polygon fill="#112c5f" stroke="#112c5f" stroke-width="2" points="81.561,-76.6657 80.2463,-66.1527 74.7181,-75.191 81.561,-76.6657"></polygon>
</g>
<!-- cell_0&#45;&gt;cell_0 -->
<g id="edge4" class="edge">
<title>cell_0-&gt;cell_0</title>
<path fill="none" stroke="#38568c" stroke-dasharray="5,2" d="M70.4434,-296.5858C83.7136,-299.4342 96,-294.5723 96,-282 96,-269.4277 83.7136,-264.5658 70.4434,-267.4142"></path>
</g>
<!-- System_1_0_1875 -->
<g id="node4" class="node">
<title>System_1_0_1875</title>
<g id="a_node4">
<polygon fill="#fffea3" stroke="transparent" points="168,-224 114,-224 114,-174 168,-174 168,-224"></polygon>
<text text-anchor="start" x="118.9163" y="-206.5" font-family="times" font-size="15.00" fill="#000000">System</text>
<text text-anchor="start" x="120.375" y="-182.5" font-family="times" font-size="15.00" fill="#000000">0.1875</text>
<polygon fill="#000000" stroke="#000000" points="115,-199 115,-199 167,-199 167,-199 115,-199"></polygon>
<polygon fill="none" stroke="#000000" points="115,-174 115,-224 167,-224 167,-174 115,-174"></polygon>
</g>
</g>
<!-- cell_0&#45;&gt;System_1_0_1875 -->
<g id="edge3" class="edge">
<title>cell_0-&gt;System_1_0_1875</title>
<path fill="none" stroke="#112c5f" stroke-width="2" d="M66.4769,-264.8023C77.895,-254.7204 92.6592,-241.6839 106.0306,-229.8772"></path>
<polygon fill="#112c5f" stroke="#112c5f" stroke-width="2" points="108.5273,-232.3419 113.7068,-223.0994 103.8941,-227.0946 108.5273,-232.3419"></polygon>
</g>
<!-- cytokine_0 -->
<g id="node3" class="node">
<title>cytokine_0</title>
<g id="a_node3">
<ellipse fill="#d3d247" stroke="#000000" cx="126" cy="-120" rx="44.0833" ry="18"></ellipse>
<text text-anchor="middle" x="126" y="-115.8" font-family="Times,serif" font-size="14.00" fill="#000000">cytokine</text>
</g>
</g>
<!-- cytokine_0&#45;&gt;Gnuplotter_0_1 -->
<g id="edge6" class="edge">
<title>cytokine_0-&gt;Gnuplotter_0_1</title>
<path fill="none" stroke="#112c5f" stroke-width="2" d="M116.9234,-102.0737C112.8781,-94.0842 107.9727,-84.3961 103.2722,-75.1126"></path>
<polygon fill="#112c5f" stroke="#112c5f" stroke-width="2" points="106.3193,-73.3824 98.6794,-66.0419 100.0742,-76.5445 106.3193,-73.3824"></polygon>
</g>
<!-- System_1_0_1875&#45;&gt;cytokine_0 -->
<g id="edge1" class="edge">
<title>System_1_0_1875-&gt;cytokine_0</title>
<path fill="none" stroke="#8f100d" stroke-width="3" d="M136.1713,-173.5691C134.6297,-165.45 132.9149,-156.4187 131.3393,-148.1201"></path>
<polygon fill="#8f100d" stroke="#8f100d" stroke-width="3" points="134.7454,-147.2957 129.4413,-138.1242 127.8682,-148.6016 134.7454,-147.2957"></polygon>
</g>
<!-- r_1 -->
<g id="node5" class="node">
<title>r_1</title>
<g id="a_node5">
<ellipse fill="#d3d247" stroke="#000000" cx="141" cy="-282" rx="27" ry="18"></ellipse>
<text text-anchor="middle" x="141" y="-277.8" font-family="Times,serif" font-size="14.00" fill="#000000">r</text>
</g>
</g>
<!-- r_1&#45;&gt;System_1_0_1875 -->
<g id="edge7" class="edge">
<title>r_1-&gt;System_1_0_1875</title>
<path fill="none" stroke="#112c5f" stroke-width="2" d="M141,-263.9902C141,-255.3561 141,-244.6993 141,-234.5308"></path>
<polygon fill="#112c5f" stroke="#112c5f" stroke-width="2" points="144.5001,-234.2161 141,-224.2161 137.5001,-234.2161 144.5001,-234.2161"></polygon>
</g>
<!-- cell_2 -->
<g id="node6" class="node">
<title>cell_2</title>
<g id="a_node6">
<ellipse fill="#d3d247" stroke="#000000" cx="51" cy="-366.8" rx="27" ry="18"></ellipse>
<text text-anchor="middle" x="51" y="-362.6" font-family="Times,serif" font-size="14.00" fill="#000000">cell</text>
</g>
</g>
<!-- cell_2&#45;&gt;cell_0 -->
<g id="edge5" class="edge">
<title>cell_2-&gt;cell_0</title>
<path fill="none" stroke="#38568c" stroke-dasharray="5,2" d="M50.1321,-348.3997C49.5209,-335.4424 48.6994,-318.0264 48.051,-304.2819"></path>
</g>
</g>
</svg>