<?xml version="1.0" encoding="UTF-8" standalone="no"?> <svg xmlns="http://www.w3.org/2000/svg" xmlns:xlink="http://www.w3.org/1999/xlink" width="734pt" height="353pt" viewBox="0.00 0.00 734.00 352.80">
<g id="graph0" class="graph" transform="scale(1 1) rotate(0) translate(4 348.8)">
<title>%0</title>
<polygon fill="#ffffff" stroke="transparent" points="-4,4 -4,-348.8 730,-348.8 730,4 -4,4"></polygon>
<g id="clust1" class="cluster">
<title>cluster</title>
<polygon fill="#234178" fill-opacity="0.184314" stroke="#000000" points="8,-8 8,-336.8 718,-336.8 718,-8 8,-8"></polygon>
<text text-anchor="middle" x="363" y="-320.2" font-family="Times,serif" font-size="14.00" fill="#000000">Global</text>
</g>
<g id="clust2" class="cluster">
<title>cluster_1</title>
<polygon fill="#234178" fill-opacity="0.184314" stroke="#000000" points="16,-166 16,-304 710,-304 710,-166 16,-166"></polygon>
</g>
<!-- Logger_0_5 -->
<g id="node1" class="node">
<title>Logger_0_5</title>
<g id="a_node1">">
<polygon fill="#fffea3" stroke="transparent" points="376.5,-66 325.5,-66 325.5,-16 376.5,-16 376.5,-66"></polygon>
<text text-anchor="start" x="329.8423" y="-48.5" font-family="times" font-size="15.00" fill="#000000">Logger</text>
<text text-anchor="start" x="347.75" y="-24.5" font-family="times" font-size="15.00" fill="#000000">5</text>
<polygon fill="#000000" stroke="#000000" points="326,-41 326,-41 377,-41 377,-41 326,-41"></polygon>
<polygon fill="none" stroke="#000000" points="325.5,-16 325.5,-66 376.5,-66 376.5,-16 325.5,-16"></polygon>
</g>
</g>
<!-- F_a_0 -->
<g id="node2" class="node">
<title>F_a_0</title>
<g id="a_node2">
<ellipse fill="#d3d247" stroke="#000000" cx="315" cy="-120" rx="27" ry="18"></ellipse>
<text text-anchor="middle" x="315" y="-115.8" font-family="Times,serif" font-size="14.00" fill="#000000">F_a</text>
</g>
</g>
<!-- F_a_0&#45;&gt;Logger_0_5 -->
<g id="edge1" class="edge">
<title>F_a_0-&gt;Logger_0_5</title>
<path fill="none" stroke="#112c5f" stroke-width="2" d="M322.9896,-102.4673C326.625,-94.4896 331.0592,-84.759 335.3175,-75.4145"></path>
<polygon fill="#112c5f" stroke="#112c5f" stroke-width="2" points="338.5191,-76.829 339.481,-66.2779 332.1493,-73.9262 338.5191,-76.829"></polygon>
</g>
<!-- a_0 -->
<g id="node3" class="node">
<title>a_0</title>
<g id="a_node3">
<ellipse fill="#d3d247" stroke="#000000" cx="387" cy="-120" rx="27" ry="18"></ellipse>
<text text-anchor="middle" x="387" y="-115.8" font-family="Times,serif" font-size="14.00" fill="#000000">a</text>
</g>
</g>
<!-- a_0&#45;&gt;Logger_0_5 -->
<g id="edge5" class="edge">
<title>a_0-&gt;Logger_0_5</title>
<path fill="none" stroke="#112c5f" stroke-width="2" d="M379.0104,-102.4673C375.375,-94.4896 370.9408,-84.759 366.6825,-75.4145"></path>
<polygon fill="#112c5f" stroke="#112c5f" stroke-width="2" points="369.8507,-73.9262 362.519,-66.2779 363.4809,-76.829 369.8507,-73.9262"></polygon>
</g>
<!-- System_1_0_1 -->
<g id="node4" class="node">
<title>System_1_0_1</title>
<g id="a_node4">">
<polygon fill="#fffea3" stroke="transparent" points="377,-224 325,-224 325,-174 377,-174 377,-224"></polygon>
<text text-anchor="start" x="328.9163" y="-206.5" font-family="times" font-size="15.00" fill="#000000">System</text>
<text text-anchor="start" x="341.625" y="-182.5" font-family="times" font-size="15.00" fill="#000000">0.1</text>
<polygon fill="#000000" stroke="#000000" points="325,-199 325,-199 377,-199 377,-199 325,-199"></polygon>
<polygon fill="none" stroke="#000000" points="325,-174 325,-224 377,-224 377,-174 325,-174"></polygon>
</g>
</g>
<!-- System_1_0_1&#45;&gt;F_a_0 -->
<g id="edge2" class="edge">
<title>System_1_0_1-&gt;F_a_0</title>
<path fill="none" stroke="#8f100d" stroke-width="3" d="M339.4112,-173.5691C335.5283,-165.0483 331.1876,-155.5228 327.2554,-146.8939"></path>
<polygon fill="#8f100d" stroke="#8f100d" stroke-width="3" points="330.3674,-145.2822 323.0357,-137.6339 323.9976,-148.185 330.3674,-145.2822"></polygon>
</g>
<!-- System_1_0_1&#45;&gt;a_0 -->
<g id="edge3" class="edge">
<title>System_1_0_1-&gt;a_0</title>
<path fill="none" stroke="#8f100d" stroke-width="3" d="M362.5888,-173.5691C366.4717,-165.0483 370.8124,-155.5228 374.7446,-146.8939"></path>
<polygon fill="#8f100d" stroke="#8f100d" stroke-width="3" points="378.0024,-148.185 378.9643,-137.6339 371.6326,-145.2822 378.0024,-148.185"></polygon>
</g>
<!-- Tot_1 -->
<g id="node5" class="node">
<title>Tot_1</title>
<g id="a_node5">
<ellipse fill="#d3d247" stroke="#000000" cx="675" cy="-278" rx="27" ry="18"></ellipse>
<text text-anchor="middle" x="675" y="-273.8" font-family="Times,serif" font-size="14.00" fill="#000000">Tot</text>
</g>
</g>
<!-- Tot_1&#45;&gt;System_1_0_1 -->
<g id="edge4" class="edge">
<title>Tot_1-&gt;System_1_0_1</title>
<path fill="none" stroke="#112c5f" stroke-width="2" d="M654.0703,-266.4157C649.2229,-264.0501 644.0134,-261.7519 639,-260 551.0659,-229.2715 442.3666,-211.3786 387.0377,-203.6197"></path>
<polygon fill="#112c5f" stroke="#112c5f" stroke-width="2" points="387.408,-200.1378 377.0249,-202.2451 386.4559,-207.0728 387.408,-200.1378"></polygon>
</g>
<!-- b_1 -->
<g id="node6" class="node">
<title>b_1</title>
<g id="a_node6">
<ellipse fill="#d3d247" stroke="#000000" cx="603" cy="-278" rx="27" ry="18"></ellipse>
<text text-anchor="middle" x="603" y="-273.8" font-family="Times,serif" font-size="14.00" fill="#000000">b</text>
</g>
</g>
<!-- b_1&#45;&gt;System_1_0_1 -->
<g id="edge6" class="edge">
<title>b_1-&gt;System_1_0_1</title>
<path fill="none" stroke="#112c5f" stroke-width="2" d="M581.9798,-266.6615C577.1371,-264.2831 571.9523,-261.9177 567,-260 505.2694,-236.0965 430.3493,-217.0556 386.9285,-206.9498"></path>
<polygon fill="#112c5f" stroke="#112c5f" stroke-width="2" points="387.6459,-203.5235 377.1159,-204.6937 386.0773,-210.3455 387.6459,-203.5235"></polygon>
</g>
<!-- epsilon_1 -->
<g id="node7" class="node">
<title>epsilon_1</title>
<g id="a_node7">
<ellipse fill="#d3d247" stroke="#000000" cx="519" cy="-278" rx="38.8632" ry="18"></ellipse>
<text text-anchor="middle" x="519" y="-273.8" font-family="Times,serif" font-size="14.00" fill="#000000">epsilon</text>
</g>
</g>
<!-- epsilon_1&#45;&gt;System_1_0_1 -->
<g id="edge7" class="edge">
<title>epsilon_1-&gt;System_1_0_1</title>
<path fill="none" stroke="#112c5f" stroke-width="2" d="M491.634,-265.1315C462.9851,-251.6597 417.8848,-230.4518 386.5101,-215.6982"></path>
<polygon fill="#112c5f" stroke="#112c5f" stroke-width="2" points="387.7859,-212.4305 377.2471,-211.3424 384.8071,-218.7651 387.7859,-212.4305"></polygon>
</g>
<!-- eta_1 -->
<g id="node8" class="node">
<title>eta_1</title>
<g id="a_node8">
<ellipse fill="#d3d247" stroke="#000000" cx="435" cy="-278" rx="27" ry="18"></ellipse>
<text text-anchor="middle" x="435" y="-273.8" font-family="Times,serif" font-size="14.00" fill="#000000">eta</text>
</g>
</g>
<!-- eta_1&#45;&gt;System_1_0_1 -->
<g id="edge8" class="edge">
<title>eta_1-&gt;System_1_0_1</title>
<path fill="none" stroke="#112c5f" stroke-width="2" d="M419.2002,-263.1407C409.5319,-254.0479 396.7794,-242.0545 384.9202,-230.9011"></path>
<polygon fill="#112c5f" stroke="#112c5f" stroke-width="2" points="386.9797,-228.0334 377.2973,-223.732 382.184,-233.1326 386.9797,-228.0334"></polygon>
</g>
<!-- gamma_1 -->
<g id="node9" class="node">
<title>gamma_1</title>
<g id="a_node9">
<ellipse fill="#d3d247" stroke="#000000" cx="351" cy="-278" rx="39.4254" ry="18"></ellipse>
<text text-anchor="middle" x="351" y="-273.8" font-family="Times,serif" font-size="14.00" fill="#000000">gamma</text>
</g>
</g>
<!-- gamma_1&#45;&gt;System_1_0_1 -->
<g id="edge9" class="edge">
<title>gamma_1-&gt;System_1_0_1</title>
<path fill="none" stroke="#112c5f" stroke-width="2" d="M351,-259.6772C351,-252.0766 351,-242.9908 351,-234.1933"></path>
<polygon fill="#112c5f" stroke="#112c5f" stroke-width="2" points="354.5001,-234.1046 351,-224.1046 347.5001,-234.1047 354.5001,-234.1046"></polygon>
</g>
<!-- k_n_1 -->
<g id="node10" class="node">
<title>k_n_1</title>
<g id="a_node10">
<ellipse fill="#d3d247" stroke="#000000" cx="267" cy="-278" rx="27" ry="18"></ellipse>
<text text-anchor="middle" x="267" y="-273.8" font-family="Times,serif" font-size="14.00" fill="#000000">k_n</text>
</g>
</g>
<!-- k_n_1&#45;&gt;System_1_0_1 -->
<g id="edge10" class="edge">
<title>k_n_1-&gt;System_1_0_1</title>
<path fill="none" stroke="#112c5f" stroke-width="2" d="M282.7998,-263.1407C292.4681,-254.0479 305.2206,-242.0545 317.0798,-230.9011"></path>
<polygon fill="#112c5f" stroke="#112c5f" stroke-width="2" points="319.816,-233.1326 324.7027,-223.732 315.0203,-228.0334 319.816,-233.1326"></polygon>
</g>
<!-- k_s_1 -->
<g id="node11" class="node">
<title>k_s_1</title>
<g id="a_node11">
<ellipse fill="#d3d247" stroke="#000000" cx="195" cy="-278" rx="27" ry="18"></ellipse>
<text text-anchor="middle" x="195" y="-273.8" font-family="Times,serif" font-size="14.00" fill="#000000">k_s</text>
</g>
</g>
<!-- k_s_1&#45;&gt;System_1_0_1 -->
<g id="edge11" class="edge">
<title>k_s_1-&gt;System_1_0_1</title>
<path fill="none" stroke="#112c5f" stroke-width="2" d="M216.6911,-267.0154C242.3355,-254.0288 285.3678,-232.2368 315.804,-216.8236"></path>
<polygon fill="#112c5f" stroke="#112c5f" stroke-width="2" points="317.4721,-219.9021 324.8122,-212.2618 314.3096,-213.6572 317.4721,-219.9021"></polygon>
</g>
<!-- n_1 -->
<g id="node12" class="node">
<title>n_1</title>
<g id="a_node12">
<ellipse fill="#d3d247" stroke="#000000" cx="123" cy="-278" rx="27" ry="18"></ellipse>
<text text-anchor="middle" x="123" y="-273.8" font-family="Times,serif" font-size="14.00" fill="#000000">n</text>
</g>
</g>
<!-- n_1&#45;&gt;System_1_0_1 -->
<g id="edge12" class="edge">
<title>n_1-&gt;System_1_0_1</title>
<path fill="none" stroke="#112c5f" stroke-width="2" d="M144.4501,-266.5918C149.1795,-264.2696 154.2088,-261.945 159,-260 212.1006,-238.4432 275.8852,-219.4911 314.9221,-208.6409"></path>
<polygon fill="#112c5f" stroke="#112c5f" stroke-width="2" points="316.0568,-211.9588 324.7692,-205.9301 314.1988,-205.2099 316.0568,-211.9588"></polygon>
</g>
<!-- s_1 -->
<g id="node13" class="node">
<title>s_1</title>
<g id="a_node13">
<ellipse fill="#d3d247" stroke="#000000" cx="51" cy="-278" rx="27" ry="18"></ellipse>
<text text-anchor="middle" x="51" y="-273.8" font-family="Times,serif" font-size="14.00" fill="#000000">s</text>
</g>
</g>
<!-- s_1&#45;&gt;System_1_0_1 -->
<g id="edge13" class="edge">
<title>s_1-&gt;System_1_0_1</title>
<path fill="none" stroke="#112c5f" stroke-width="2" d="M71.9539,-266.4838C76.8,-264.1147 82.0029,-261.7979 87,-260 166.0939,-231.5435 263.3957,-213.0927 314.9516,-204.5438"></path>
<polygon fill="#112c5f" stroke="#112c5f" stroke-width="2" points="315.6275,-207.9799 324.9349,-202.9179 314.5023,-201.071 315.6275,-207.9799"></polygon>
</g>
</g>
</svg>