<?xml version="1.0" encoding="UTF-8" standalone="no"?> <svg xmlns="http://www.w3.org/2000/svg" xmlns:xlink="http://www.w3.org/1999/xlink" width="310pt" height="353pt" viewBox="0.00 0.00 310.00 352.80">
<g id="graph0" class="graph" transform="scale(1 1) rotate(0) translate(4 348.8)">
<title style="">%0</title>
<polygon fill="#ffffff" stroke="transparent" points="-4,4 -4,-348.8 306,-348.8 306,4 -4,4" style=""></polygon>
<g id="clust1" class="cluster">
<title style="">cluster</title>
<polygon fill="#234178" fill-opacity="0.184314" stroke="#000000" points="8,-8 8,-336.8 294,-336.8 294,-8 8,-8" style=""></polygon>
<text text-anchor="middle" x="151" y="-320.2" font-family="Times,serif" font-size="14.00" fill="#000000">Global</text>
</g>
<g id="clust3" class="cluster">
<title style="">cluster_2</title>
<polygon fill="#234178" fill-opacity="0.184314" stroke="#000000" points="112,-166 112,-304 278,-304 278,-166 112,-166" style=""></polygon>
</g>
<!-- Logger_0_1 -->
<g id="node1" class="node">
<title style="">Logger_0_1</title>
<g id="a_node1">">
<polygon fill="#fffea3" stroke="transparent" points="176.5,-66 125.5,-66 125.5,-16 176.5,-16 176.5,-66" style=""></polygon>
<text text-anchor="start" x="129.8423" y="-48.5" font-family="times" font-size="15.00" fill="#000000">Logger</text>
<text text-anchor="start" x="147.75" y="-24.5" font-family="times" font-size="15.00" fill="#000000">1</text>
<polygon fill="#000000" stroke="#000000" points="126,-41 126,-41 177,-41 177,-41 126,-41" style=""></polygon>
<polygon fill="none" stroke="#000000" points="125.5,-16 125.5,-66 176.5,-66 176.5,-16 125.5,-16" style=""></polygon>
</g>
</g>
<!-- L_0 -->
<g id="node2" class="node">
<title style="">L_0</title>
<g id="a_node2">
<ellipse fill="#d3d247" stroke="#000000" cx="115" cy="-120" rx="27" ry="18" style=""></ellipse>
<text text-anchor="middle" x="115" y="-115.8" font-family="Times,serif" font-size="14.00" fill="#000000">L</text>
</g>
</g>
<!-- L_0&#45;&gt;Logger_0_1 -->
<g id="edge1" class="edge">
<title style="">L_0-&gt;Logger_0_1</title>
<path fill="none" stroke="#112c5f" stroke-width="2" d="M122.9896,-102.4673C126.625,-94.4896 131.0592,-84.759 135.3175,-75.4145" style=""></path>
<polygon fill="#112c5f" stroke="#112c5f" stroke-width="2" points="138.5191,-76.829 139.481,-66.2779 132.1493,-73.9262 138.5191,-76.829" style=""></polygon>
</g>
<!-- a_0 -->
<g id="node3" class="node">
<title style="">a_0</title>
<g id="a_node3">
<ellipse fill="#d3d247" stroke="#000000" cx="259" cy="-120" rx="27" ry="18" style=""></ellipse>
<text text-anchor="middle" x="259" y="-115.8" font-family="Times,serif" font-size="14.00" fill="#000000">a</text>
</g>
</g>
<!-- a_0&#45;&gt;Logger_0_1 -->
<g id="edge4" class="edge">
<title style="">a_0-&gt;Logger_0_1</title>
<path fill="none" stroke="#112c5f" stroke-width="2" d="M240.6793,-106.5987C225.4402,-95.4516 203.3393,-79.2853 184.8913,-65.7909" style=""></path>
<polygon fill="#112c5f" stroke="#112c5f" stroke-width="2" points="186.8476,-62.8855 176.7101,-59.8064 182.7149,-68.5353 186.8476,-62.8855" style=""></polygon>
</g>
<!-- i_0 -->
<g id="node4" class="node">
<title style="">i_0</title>
<g id="a_node4">
<ellipse fill="#d3d247" stroke="#000000" cx="187" cy="-120" rx="27" ry="18" style=""></ellipse>
<text text-anchor="middle" x="187" y="-115.8" font-family="Times,serif" font-size="14.00" fill="#000000">i</text>
</g>
</g>
<!-- i_0&#45;&gt;Logger_0_1 -->
<g id="edge6" class="edge">
<title style="">i_0-&gt;Logger_0_1</title>
<path fill="none" stroke="#112c5f" stroke-width="2" d="M179.0104,-102.4673C175.375,-94.4896 170.9408,-84.759 166.6825,-75.4145" style=""></path>
<polygon fill="#112c5f" stroke="#112c5f" stroke-width="2" points="169.8507,-73.9262 162.519,-66.2779 163.4809,-76.829 169.8507,-73.9262" style=""></polygon>
</g>
<!-- System_2_0_000475 -->
<g id="node8" class="node">
<title style="">System_2_0_000475</title>
<g id="a_node8">">
<polygon fill="#fffea3" stroke="transparent" points="241,-224 177,-224 177,-174 241,-174 241,-224" style=""></polygon>
<text text-anchor="start" x="186.9163" y="-206.5" font-family="times" font-size="15.00" fill="#000000">System</text>
<text text-anchor="start" x="180.875" y="-182.5" font-family="times" font-size="15.00" fill="#000000">0.000475</text>
<polygon fill="#000000" stroke="#000000" points="177,-199 177,-199 241,-199 241,-199 177,-199" style=""></polygon>
<polygon fill="none" stroke="#000000" points="177,-174 177,-224 241,-224 241,-174 177,-174" style=""></polygon>
</g>
</g>
<!-- i_0&#45;&gt;System_2_0_000475 -->
<g id="edge7" class="edge">
<title style="">i_0-&gt;System_2_0_000475</title>
<path fill="none" stroke="#112c5f" stroke-width="2" d="M197.2675,-136.6664C200.3333,-144.5269 203.3977,-154.2248 205.8619,-163.6098" style=""></path>
<polygon fill="#112c5f" stroke="#112c5f" stroke-width="2" points="202.5181,-164.6729 208.272,-173.5691 209.3217,-163.0263 202.5181,-164.6729" style=""></polygon>
</g>
<!-- space_0 -->
<g id="node5" class="node">
<title style="">space_0</title>
<g id="a_node5">
<ellipse fill="#b5b426" stroke="#000000" cx="56" cy="-278" rx="32.4615" ry="18" style=""></ellipse>
<text text-anchor="middle" x="56" y="-273.8" font-family="Times,serif" font-size="14.00" fill="#000000">space</text>
</g>
</g>
<!-- space_x_0 -->
<g id="node6" class="node">
<title style="">space_x_0</title>
<ellipse fill="#d3d247" stroke="#000000" cx="56" cy="-199" rx="39.9481" ry="18" style=""></ellipse>
<text text-anchor="middle" x="56" y="-194.8" font-family="Times,serif" font-size="14.00" fill="#000000">space.x</text>
</g>
<!-- space_0&#45;&gt;space_x_0 -->
<g id="edge9" class="edge">
<title style="">space_0-&gt;space_x_0</title>
<path fill="none" stroke="#38568c" stroke-dasharray="5,2" d="M56,-259.6772C56,-246.9146 56,-229.9642 56,-217.2234" style=""></path>
</g>
<!-- x_0 -->
<g id="node7" class="node">
<title style="">x_0</title>
<g id="a_node7">
<ellipse fill="#d3d247" stroke="#000000" cx="43" cy="-120" rx="27" ry="18" style=""></ellipse>
<text text-anchor="middle" x="43" y="-115.8" font-family="Times,serif" font-size="14.00" fill="#000000">x</text>
</g>
</g>
<!-- space_x_0&#45;&gt;x_0 -->
<g id="edge10" class="edge">
<title style="">space_x_0-&gt;x_0</title>
<path fill="none" stroke="#112c5f" stroke-width="2" d="M52.9849,-180.6772C51.382,-170.9365 49.3776,-158.7563 47.5862,-147.87" style=""></path>
<polygon fill="#112c5f" stroke="#112c5f" stroke-width="2" points="51.0313,-147.25 45.954,-137.951 44.1242,-148.3867 51.0313,-147.25" style=""></polygon>
</g>
<!-- x_0&#45;&gt;Logger_0_1 -->
<g id="edge11" class="edge">
<title style="">x_0-&gt;Logger_0_1</title>
<path fill="none" stroke="#112c5f" stroke-width="2" d="M61.3207,-106.5987C76.5598,-95.4516 98.6607,-79.2853 117.1087,-65.7909" style=""></path>
<polygon fill="#112c5f" stroke="#112c5f" stroke-width="2" points="119.2851,-68.5353 125.2899,-59.8064 115.1524,-62.8855 119.2851,-68.5353" style=""></polygon>
</g>
<!-- System_2_0_000475&#45;&gt;a_0 -->
<g id="edge2" class="edge">
<title style="">System_2_0_000475-&gt;a_0</title>
<path fill="none" stroke="#8f100d" stroke-width="3" d="M225.0955,-173.5691C230.8337,-164.5028 237.2918,-154.299 243.0202,-145.2481" style=""></path>
<polygon fill="#8f100d" stroke="#8f100d" stroke-width="3" points="246.0611,-146.988 248.4517,-136.6664 240.1462,-143.2444 246.0611,-146.988" style=""></polygon>
</g>
<!-- System_2_0_000475&#45;&gt;i_0 -->
<g id="edge3" class="edge">
<title style="">System_2_0_000475-&gt;i_0</title>
<path fill="none" stroke="#8f100d" stroke-width="3" d="M195.5639,-173.5691C192.8269,-165.45 190.2651,-156.4187 188.3363,-148.1201" style=""></path>
<polygon fill="#8f100d" stroke="#8f100d" stroke-width="3" points="191.7215,-147.2067 186.2663,-138.1242 184.8669,-148.6262 191.7215,-147.2067" style=""></polygon>
</g>
<!-- gamma_2 -->
<g id="node9" class="node">
<title style="">gamma_2</title>
<g id="a_node9">
<ellipse fill="#d3d247" stroke="#000000" cx="231" cy="-278" rx="39.4254" ry="18" style=""></ellipse>
<text text-anchor="middle" x="231" y="-273.8" font-family="Times,serif" font-size="14.00" fill="#000000">gamma</text>
</g>
</g>
<!-- gamma_2&#45;&gt;System_2_0_000475 -->
<g id="edge5" class="edge">
<title style="">gamma_2-&gt;System_2_0_000475</title>
<path fill="none" stroke="#112c5f" stroke-width="2" d="M226.0079,-260.0737C223.8293,-252.2507 221.1972,-242.7991 218.6614,-233.6933" style=""></path>
<polygon fill="#112c5f" stroke="#112c5f" stroke-width="2" points="222.0282,-232.7363 215.9737,-224.0419 215.2848,-234.6143 222.0282,-232.7363" style=""></polygon>
</g>
<!-- n_2 -->
<g id="node10" class="node">
<title style="">n_2</title>
<g id="a_node10">
<ellipse fill="#d3d247" stroke="#000000" cx="147" cy="-278" rx="27" ry="18" style=""></ellipse>
<text text-anchor="middle" x="147" y="-273.8" font-family="Times,serif" font-size="14.00" fill="#000000">n</text>
</g>
</g>
<!-- n_2&#45;&gt;System_2_0_000475 -->
<g id="edge8" class="edge">
<title style="">n_2-&gt;System_2_0_000475</title>
<path fill="none" stroke="#112c5f" stroke-width="2" d="M159.5466,-262.0132C166.2475,-253.475 174.7569,-242.6323 182.8203,-232.358" style=""></path>
<polygon fill="#112c5f" stroke="#112c5f" stroke-width="2" points="185.7278,-234.3224 189.1483,-224.2949 180.2211,-230.0007 185.7278,-234.3224" style=""></polygon>
</g>
</g>
</svg>