<?xml version="1.0" encoding="UTF-8" standalone="no"?> <svg xmlns="http://www.w3.org/2000/svg" xmlns:xlink="http://www.w3.org/1999/xlink" width="1218pt" height="474pt" viewBox="0.00 0.00 1218 474.4">
<g id="graph0" class="graph" transform="translate(4, 470.3999938964844)">
<title>%0</title>
<polygon fill="#ffffff" stroke="transparent" points="-4,4 -4,-470.4 1214,-470.4 1214,4 -4,4"></polygon>
<g id="clust1" class="cluster">
<title>cluster</title>
<polygon fill="#234178" fill-opacity="0.184314" stroke="#000000" points="8,-8 8,-458.4 1202,-458.4 1202,-8 8,-8"></polygon>
<text text-anchor="middle" x="605" y="-441.8" font-family="Times,serif" font-size="14.00" fill="#000000">Global</text>
</g>
<g id="clust2" class="cluster">
<title>cluster_1</title>
<polygon fill="#234178" fill-opacity="0.184314" stroke="#000000" points="125,-258.8 125,-425.6 503,-425.6 503,-258.8 125,-258.8"></polygon>
<text text-anchor="middle" x="314" y="-409" font-family="Times,serif" font-size="14.00" fill="#000000">System</text>
</g>
<g id="clust3" class="cluster">
<title>cluster_2</title>
<polygon fill="#234178" fill-opacity="0.184314" stroke="#000000" points="505,-16 505,-250.8 847,-250.8 847,-16 505,-16"></polygon>
<text text-anchor="middle" x="676" y="-234.2" font-family="Times,serif" font-size="14.00" fill="#000000">CellType[stemCells]</text>
</g>
<g id="clust4" class="cluster">
<title>cluster_3</title>
<polygon fill="#234178" fill-opacity="0.184314" stroke="#000000" points="1071,-348.8 1071,-425.6 1194,-425.6 1194,-348.8 1071,-348.8"></polygon>
<text text-anchor="middle" x="1132.5" y="-409" font-family="Times,serif" font-size="14.00" fill="#000000">CellType[medium]</text>
</g>
<!-- CPM_0_0_1 -->
<g id="node1" class="node">
<title>CPM_0_0_1</title>
<g id="a_node1">">
<polygon fill="#fffea3" stroke="transparent" points="759.5,-320.8 704.5,-320.8 704.5,-262.8 759.5,-262.8 759.5,-320.8"></polygon>
<text text-anchor="start" x="716.6623" y="-299.3" font-family="times" font-size="15.00" fill="#000000">CPM</text>
<text text-anchor="start" x="723.125" y="-275.3" font-family="times" font-size="15.00" fill="#000000">0.1</text>
<polygon fill="#000000" stroke="#000000" points="713,-291.8 713,-291.8 752,-291.8 752,-291.8 713,-291.8"></polygon>
<polygon fill="none" stroke="#000000" points="712.5,-266.8 712.5,-316.8 751.5,-316.8 751.5,-266.8 712.5,-266.8"></polygon>
</g>
</g>
<!-- cell_center_0 -->

<!-- CPM_0_0_1&#45;&gt;cell_center_0 -->
<g id="edge1" class="edge">
<title style="">CPM_0_0_1-&gt;cell_center_2</title>
<path fill="none" stroke="#8f100d" stroke-width="3" d="M749.7188,-262.7539C756.8489,-251.0655 765.012,-237.6839 771.9635,-226.2884"></path>
<polygon fill="#8f100d" stroke="#8f100d" stroke-width="3" points="775.0159,-228.0053 777.2358,-217.6456 769.0401,-224.3599 775.0159,-228.0053"></polygon>
</g>
<!-- cell_type_0 -->

<!-- CPM_0_0_1&#45;&gt;cell_type_0 -->
<g id="edge2" class="edge">
<title style="">CPM_0_0_1-&gt;cell_type_2</title>
<path fill="none" stroke="#8f100d" stroke-width="3" d="M713.9648,-262.7539C706.7073,-251.0655 698.3985,-237.6839 691.3229,-226.2884"></path>
<polygon fill="#8f100d" stroke="#8f100d" stroke-width="3" points="694.2049,-224.2949 685.9564,-217.6456 688.258,-227.9875 694.2049,-224.2949"></polygon>
</g>
<!-- Gnuplotter_0_1 -->

<!-- a_1_0 -->
<g id="node2" class="node">
<title>a_1_0</title>
<g id="a_node2">
<ellipse fill="#d3d247" stroke="#000000" cx="1036" cy="-374.8" rx="27" ry="18"></ellipse>
<text text-anchor="middle" x="1036" y="-370.6" font-family="Times,serif" font-size="14.00" fill="#000000">a_1</text>
</g>
</g>
<!-- System_1_0_02 -->
<g id="node12" class="node">
<title>System_1_0_02</title>
<g id="a_node12">">
<polygon fill="#fffea3" stroke="transparent" points="495,-316.8 441,-316.8 441,-266.8 495,-266.8 495,-316.8"></polygon>
<text text-anchor="start" x="445.9163" y="-299.3" font-family="times" font-size="15.00" fill="#000000">System</text>
<text text-anchor="start" x="454.875" y="-275.3" font-family="times" font-size="15.00" fill="#000000">0.02</text>
<polygon fill="#000000" stroke="#000000" points="442,-291.8 442,-291.8 494,-291.8 494,-291.8 442,-291.8"></polygon>
<polygon fill="none" stroke="#000000" points="442,-266.8 442,-316.8 494,-316.8 494,-266.8 442,-266.8"></polygon>
</g>
</g>
<!-- a_1_0&#45;&gt;System_1_0_02 -->
<g id="edge7" class="edge">
<title>a_1_0-&gt;System_1_0_02</title>
<path fill="none" stroke="#112c5f" stroke-width="2" d="M1019.9256,-360.1981C1014.0659,-355.7261 1007.1212,-351.3243 1000,-348.8 897.7745,-312.5634 617.4351,-361.7931 501.3238,-320.621"></path>
<polygon fill="#112c5f" stroke="#112c5f" stroke-width="2" points="502.5156,-317.3288 491.9282,-316.9304 499.9563,-323.8442 502.5156,-317.3288"></polygon>
</g>
<!-- a_2_0 -->
<g id="node3" class="node">
<title>a_2_0</title>
<g id="a_node3">
<ellipse fill="#d3d247" stroke="#000000" cx="964" cy="-374.8" rx="27" ry="18"></ellipse>
<text text-anchor="middle" x="964" y="-370.6" font-family="Times,serif" font-size="14.00" fill="#000000">a_2</text>
</g>
</g>
<!-- a_2_0&#45;&gt;System_1_0_02 -->
<g id="edge8" class="edge">
<title>a_2_0-&gt;System_1_0_02</title>
<path fill="none" stroke="#112c5f" stroke-width="2" d="M947.912,-360.236C942.0512,-355.7672 935.1094,-351.3576 928,-348.8 751.2805,-285.2259 676.8966,-392.9255 501.1967,-320.8306"></path>
<polygon fill="#112c5f" stroke="#112c5f" stroke-width="2" points="502.512,-317.5867 491.9391,-316.9051 499.7793,-324.0313 502.512,-317.5867"></polygon>
</g>
<!-- avgBMP_0 -->
<g id="node18" class="node">
<title style="">Mapper_2_1</title>
<g id="a_node18">" style="">
<polygon fill="#fffea3" stroke="transparent" points="585,-146 531,-146 531,-96 585,-96 585,-146" style=""></polygon>
<text text-anchor="start" x="534.678" y="-128.5" font-family="times" font-size="15.00" fill="#000000" style="">Mapper</text>
<text text-anchor="start" x="554.25" y="-104.5" font-family="times" font-size="15.00" fill="#000000" style="">1</text>
<polygon fill="#000000" stroke="#000000" points="531,-121 531,-121 585,-121 585,-121 531,-121" style=""></polygon>
<polygon fill="none" stroke="#000000" points="531,-96 531,-146 585,-146 585,-96 531,-96" style=""></polygon>
</g>
</g>
<!-- avgBMP_0&#45;&gt;Gnuplotter_0_1 -->
<g id="edge9" class="edge">
<title style="">b_0-&gt;Mapper_2_1</title>
<path fill="none" stroke="#112c5f" stroke-width="2" d="M417.6797,-189.1041C422.3949,-186.75 427.3603,-184.2829 432,-182 462.1651,-167.1576 496.5195,-150.545 521.7286,-138.4087"></path>
<polygon fill="#112c5f" stroke="#112c5f" stroke-width="2" points="523.4205,-141.4788 530.9147,-133.9895 520.3859,-135.1707 523.4205,-141.4788"></polygon>
</g>
<!-- avgNog_0 -->

<!-- avgNog_0&#45;&gt;Gnuplotter_0_1 -->

<!-- b_0 -->
<g id="node4" class="node">
<title>b_0</title>
<g id="a_node4">
<ellipse fill="#d3d247" stroke="#000000" cx="396" cy="-200" rx="27" ry="18"></ellipse>
<text text-anchor="middle" x="396" y="-195.8" font-family="Times,serif" font-size="14.00" fill="#000000">b</text>
</g>
</g>
<!-- b_0&#45;&gt;Gnuplotter_0_1 -->

<!-- Mapper_2_18036289306442241435_1 -->

<!-- b_0&#45;&gt;Mapper_2_18036289306442241435_1 -->

<!-- beta_1_0 -->
<g id="node5" class="node">
<title>beta_1_0</title>
<g id="a_node5">
<ellipse fill="#d3d247" stroke="#000000" cx="882" cy="-374.8" rx="36.5594" ry="18"></ellipse>
<text text-anchor="middle" x="882" y="-370.6" font-family="Times,serif" font-size="14.00" fill="#000000">beta_1</text>
</g>
</g>
<!-- beta_1_0&#45;&gt;System_1_0_02 -->
<g id="edge10" class="edge">
<title>beta_1_0-&gt;System_1_0_02</title>
<path fill="none" stroke="#112c5f" stroke-width="2" d="M860.418,-360.0633C852.9896,-355.6954 844.4167,-351.3914 836,-348.8 695.446,-305.5258 638.8309,-378.4792 501.1479,-320.8452"></path>
<polygon fill="#112c5f" stroke="#112c5f" stroke-width="2" points="502.5268,-317.6282 491.96,-316.8574 499.7398,-324.0495 502.5268,-317.6282"></polygon>
</g><g id="edge20" class="edge">
<title style="">nog_0-&gt;Mapper_2_1</title>
<path fill="none" stroke="#112c5f" stroke-width="2" d="M484.5074,-185.5102C495.3672,-175.9777 509.9878,-163.144 523.3284,-151.434"></path>
<polygon fill="#112c5f" stroke="#112c5f" stroke-width="2" points="525.7905,-153.9299 530.997,-144.7026 521.1727,-148.6691 525.7905,-153.9299"></polygon>
</g>
<!-- beta_2_0 -->
<g id="node6" class="node">
<title>beta_2_0</title>
<g id="a_node6">
<ellipse fill="#d3d247" stroke="#000000" cx="790" cy="-374.8" rx="36.5594" ry="18"></ellipse>
<text text-anchor="middle" x="790" y="-370.6" font-family="Times,serif" font-size="14.00" fill="#000000">beta_2</text>
</g>
</g>
<!-- beta_2_0&#45;&gt;System_1_0_02 -->
<g id="edge11" class="edge">
<title>beta_2_0-&gt;System_1_0_02</title>
<path fill="none" stroke="#112c5f" stroke-width="2" d="M768.3699,-360.2153C760.9383,-355.8576 752.3756,-351.5211 744,-348.8 642.8189,-315.9285 600.9588,-363.8161 501.5359,-321.1453"></path>
<polygon fill="#112c5f" stroke="#112c5f" stroke-width="2" points="502.9295,-317.9345 492.3733,-317.0296 500.0612,-324.3199 502.9295,-317.9345"></polygon>
</g>
<!-- isMedium_0 -->

<!-- isMedium_0&#45;&gt;System_1_0_02 -->

<!-- lambda_0 -->
<g id="node7" class="node">
<title>lambda_0</title>
<g id="a_node7">
<ellipse fill="#d3d247" stroke="#000000" cx="696" cy="-374.8" rx="39.4254" ry="18"></ellipse>
<text text-anchor="middle" x="696" y="-370.6" font-family="Times,serif" font-size="14.00" fill="#000000">lambda</text>
</g>
</g>
<!-- lambda_0&#45;&gt;System_1_0_02 -->
<g id="edge17" class="edge">
<title>lambda_0-&gt;System_1_0_02</title>
<path fill="none" stroke="#112c5f" stroke-width="2" d="M672.2585,-360.0512C664.727,-355.8949 656.2168,-351.7167 648,-348.8 587.4769,-327.3166 561.5724,-349.0125 501.5703,-321.3042"></path>
<polygon fill="#112c5f" stroke="#112c5f" stroke-width="2" points="502.9826,-318.0987 492.462,-316.8466 499.9055,-324.3861 502.9826,-318.0987"></polygon>
</g>
<!-- nog_0 -->
<g id="node8" class="node">
<title>nog_0</title>
<g id="a_node8">
<ellipse fill="#d3d247" stroke="#000000" cx="468" cy="-200" rx="27" ry="18"></ellipse>
<text text-anchor="middle" x="468" y="-195.8" font-family="Times,serif" font-size="14.00" fill="#000000">nog</text>
</g>
</g>
<!-- nog_0&#45;&gt;Gnuplotter_0_1 -->

<!-- Mapper_2_1525837781294406426_1 -->

<!-- nog_0&#45;&gt;Mapper_2_1525837781294406426_1 -->

<!-- r1_0 -->
<g id="node9" class="node">
<title>r1_0</title>
<g id="a_node9">
<ellipse fill="#d3d247" stroke="#000000" cx="612" cy="-374.8" rx="27" ry="18"></ellipse>
<text text-anchor="middle" x="612" y="-370.6" font-family="Times,serif" font-size="14.00" fill="#000000">r1</text>
</g>
</g>
<!-- r1_0&#45;&gt;System_1_0_02 -->
<g id="edge22" class="edge">
<title>r1_0-&gt;System_1_0_02</title>
<path fill="none" stroke="#112c5f" stroke-width="2" d="M594.6903,-360.8174C588.9589,-356.5988 582.404,-352.1923 576,-348.8 546.5865,-333.2195 532.5414,-338.6415 502.378,-322.2363"></path>
<polygon fill="#112c5f" stroke="#112c5f" stroke-width="2" points="503.8158,-319.0225 493.4168,-316.9948 500.2815,-325.0648 503.8158,-319.0225"></polygon>
</g>
<!-- r2_0 -->
<g id="node10" class="node">
<title>r2_0</title>
<g id="a_node10">
<ellipse fill="#d3d247" stroke="#000000" cx="540" cy="-374.8" rx="27" ry="18"></ellipse>
<text text-anchor="middle" x="540" y="-370.6" font-family="Times,serif" font-size="14.00" fill="#000000">r2</text>
</g>
</g>
<!-- r2_0&#45;&gt;System_1_0_02 -->
<g id="edge23" class="edge">
<title>r2_0-&gt;System_1_0_02</title>
<path fill="none" stroke="#112c5f" stroke-width="2" d="M526.4574,-359.1883C517.9697,-349.404 506.7091,-336.423 496.338,-324.4675"></path>
<polygon fill="#112c5f" stroke="#112c5f" stroke-width="2" points="498.886,-322.0634 489.6893,-316.803 493.5983,-326.6504 498.886,-322.0634"></polygon>
</g>
<!-- timeScale_0 -->
<g id="node11" class="node">
<title>timeScale_0</title>
<g id="a_node11">
<ellipse fill="#d3d247" stroke="#000000" cx="65" cy="-374.8" rx="49.2299" ry="18"></ellipse>
<text text-anchor="middle" x="65" y="-370.6" font-family="Times,serif" font-size="14.00" fill="#000000">timeScale</text>
</g>
</g>
<!-- timeScale_0&#45;&gt;System_1_0_02 -->
<g id="edge24" class="edge">
<title>timeScale_0-&gt;System_1_0_02</title>
<path fill="none" stroke="#112c5f" stroke-width="2" d="M93.1845,-359.8981C101.907,-355.786 111.6778,-351.6709 121,-348.8 230.71,-315.0141 366.4594,-300.1087 430.8086,-294.5756"></path>
<polygon fill="#112c5f" stroke="#112c5f" stroke-width="2" points="431.2001,-298.0552 440.875,-293.737 430.6189,-291.0793 431.2001,-298.0552"></polygon>
</g>
<!-- System_1_0_02&#45;&gt;b_0 -->
<g id="edge5" class="edge">
<title>System_1_0_02-&gt;b_0</title>
<path fill="none" stroke="#8f100d" stroke-width="3" d="M445.1119,-266.5605C440.664,-261.4267 436.11,-256.0034 432,-250.8 425.5354,-242.6157 418.83,-233.3845 412.9836,-225.0582"></path>
<polygon fill="#8f100d" stroke="#8f100d" stroke-width="3" points="415.8239,-223.0121 407.2481,-216.7907 410.0724,-227.0022 415.8239,-223.0121"></polygon>
</g>
<!-- System_1_0_02&#45;&gt;nog_0 -->
<g id="edge6" class="edge">
<title>System_1_0_02-&gt;nog_0</title>
<path fill="none" stroke="#8f100d" stroke-width="3" d="M468,-266.7152C468,-254.8081 468,-240.5299 468,-228.2433"></path>
<polygon fill="#8f100d" stroke="#8f100d" stroke-width="3" points="471.5001,-228.0682 468,-218.0682 464.5001,-228.0683 471.5001,-228.0682"></polygon>
</g>
<!-- deg1_1 -->
<g id="node13" class="node">
<title>deg1_1</title>
<g id="a_node13">
<ellipse fill="#d3d247" stroke="#000000" cx="465" cy="-374.8" rx="29.6185" ry="18"></ellipse>
<text text-anchor="middle" x="465" y="-370.6" font-family="Times,serif" font-size="14.00" fill="#000000">deg1</text>
</g>
</g>
<!-- deg1_1&#45;&gt;System_1_0_02 -->
<g id="edge13" class="edge">
<title>deg1_1-&gt;System_1_0_02</title>
<path fill="none" stroke="#112c5f" stroke-width="2" d="M465.651,-356.7902C465.9663,-348.0652 466.3563,-337.2747 466.7274,-327.0098"></path>
<polygon fill="#112c5f" stroke="#112c5f" stroke-width="2" points="470.225,-327.136 467.0886,-317.0161 463.2296,-326.8831 470.225,-327.136"></polygon>
</g><g id="edge3" class="edge">
<title style="">Mapper_2_1-&gt;avgBMP_2</title>
<path fill="none" stroke="#8f100d" stroke-width="3" d="M558,-95.5691C558,-87.5402 558,-78.6193 558,-70.397" style=""></path>
<polygon fill="#8f100d" stroke="#8f100d" stroke-width="3" points="561.5001,-70.1242 558,-60.1242 554.5001,-70.1242 561.5001,-70.1242" style=""></polygon>
</g>
<!-- deg2_1 -->
<g id="node14" class="node">
<title>deg2_1</title>
<g id="a_node14">
<ellipse fill="#d3d247" stroke="#000000" cx="387" cy="-374.8" rx="29.6185" ry="18"></ellipse>
<text text-anchor="middle" x="387" y="-370.6" font-family="Times,serif" font-size="14.00" fill="#000000">deg2</text>
</g>
</g>
<!-- deg2_1&#45;&gt;System_1_0_02 -->
<g id="edge14" class="edge">
<title>deg2_1-&gt;System_1_0_02</title>
<path fill="none" stroke="#112c5f" stroke-width="2" d="M402.2355,-359.1883C411.875,-349.3108 424.6939,-336.1754 436.4528,-324.1262"></path>
<polygon fill="#112c5f" stroke="#112c5f" stroke-width="2" points="439.12,-326.4043 443.5995,-316.803 434.1103,-321.5153 439.12,-326.4043"></polygon>
</g><g id="edge4" class="edge">
<title style="">Mapper_2_1-&gt;avgNog_2</title>
<path fill="none" stroke="#8f100d" stroke-width="3" d="M585.0401,-100.6555C600.0106,-89.392 618.6255,-75.3866 633.9108,-63.8861" style=""></path>
<polygon fill="#8f100d" stroke="#8f100d" stroke-width="3" points="636.1292,-66.5971 642.0158,-57.7881 631.9207,-61.0035 636.1292,-66.5971" style=""></polygon>
</g>
<!-- n1_1 -->
<g id="node15" class="node">
<title>n1_1</title>
<g id="a_node15">
<ellipse fill="#d3d247" stroke="#000000" cx="312" cy="-374.8" rx="27" ry="18"></ellipse>
<text text-anchor="middle" x="312" y="-370.6" font-family="Times,serif" font-size="14.00" fill="#000000">n1</text>
</g>
</g><g id="edge12" class="edge">
<title style="">cell_center_2-&gt;Mapper_2_1</title>
<path fill="none" stroke="#112c5f" stroke-width="2" d="M751.3015,-187.3949C708.3551,-172.6437 637.663,-148.3625 594.7111,-133.6095"></path>
<polygon fill="#112c5f" stroke="#112c5f" stroke-width="2" points="595.7998,-130.2828 585.2051,-130.3444 593.5258,-136.9031 595.7998,-130.2828"></polygon>
</g>
<!-- n1_1&#45;&gt;System_1_0_02 -->
<g id="edge18" class="edge">
<title>n1_1-&gt;System_1_0_02</title>
<path fill="none" stroke="#112c5f" stroke-width="2" d="M329.8787,-360.9085C335.5303,-356.787 341.8963,-352.413 348,-348.8 374.9835,-332.8276 407.1507,-317.7442 431.3857,-307.1103"></path>
<polygon fill="#112c5f" stroke="#112c5f" stroke-width="2" points="432.8056,-310.3096 440.5868,-303.1191 430.0199,-303.8877 432.8056,-310.3096"></polygon>
</g>
<!-- n2_1 -->
<g id="node16" class="node">
<title>n2_1</title>
<g id="a_node16">
<ellipse fill="#d3d247" stroke="#000000" cx="240" cy="-374.8" rx="27" ry="18"></ellipse>
<text text-anchor="middle" x="240" y="-370.6" font-family="Times,serif" font-size="14.00" fill="#000000">n2</text>
</g>
</g><g id="edge15" class="edge">
<title style="">isMedium_2-&gt;System_1_0_02</title>
<path fill="none" stroke="#112c5f" stroke-width="2" d="M545.3319,-217.3006C534.9426,-227.3008 521.4426,-240.0008 509,-250.8 504.7015,-254.5307 503.1812,-254.9383 499,-258.8 498.834,-258.9533 498.6678,-259.1074 498.5014,-259.2621"></path>
<polygon fill="#112c5f" stroke="#112c5f" stroke-width="2" points="495.7211,-257.084 490.9946,-266.5661 500.6026,-262.101 495.7211,-257.084"></polygon>
</g>
<!-- n2_1&#45;&gt;System_1_0_02 -->
<g id="edge19" class="edge">
<title>n2_1-&gt;System_1_0_02</title>
<path fill="none" stroke="#112c5f" stroke-width="2" d="M257.1905,-360.5841C262.9156,-356.353 269.4968,-351.998 276,-348.8 326.9843,-323.7278 391.1045,-307.44 430.8211,-298.9372"></path>
<polygon fill="#112c5f" stroke="#112c5f" stroke-width="2" points="431.7827,-302.312 440.8572,-296.8435 430.3531,-295.4595 431.7827,-302.312"></polygon>
</g>
<!-- noise_1 -->
<g id="node17" class="node">
<title>noise_1</title>
<g id="a_node17">
<ellipse fill="#d3d247" stroke="#000000" cx="164" cy="-374.8" rx="31.339" ry="18"></ellipse>
<text text-anchor="middle" x="164" y="-370.6" font-family="Times,serif" font-size="14.00" fill="#000000">noise</text>
</g>
</g><g id="edge16" class="edge">
<title style="">isMedium_3-&gt;System_1_0_02</title>
<path fill="none" stroke="#112c5f" stroke-width="2" d="M1104.3334,-359.3597C1095.8622,-355.1753 1086.2785,-351.155 1077,-348.8 955.4001,-317.9364 633.6603,-368.3326 501.4808,-320.7125"></path>
<polygon fill="#112c5f" stroke="#112c5f" stroke-width="2" points="502.5068,-317.355 491.9197,-316.9505 499.9437,-323.8689 502.5068,-317.355"></polygon>
</g>
<g id="edge21" class="edge">
<title>noise_1-&gt;System_1_0_02</title>
<path fill="none" stroke="#112c5f" stroke-width="2" d="M183.1465,-360.3371C189.5102,-356.0928 196.8125,-351.7924 204,-348.8 280.9455,-316.7648 378.3172,-301.7359 430.652,-295.5415"></path>
<polygon fill="#112c5f" stroke="#112c5f" stroke-width="2" points="431.2665,-298.9943 440.8059,-294.3844 430.4739,-292.0393 431.2665,-298.9943"></polygon>
</g><g id="node19" class="node">
<title>avgBMP_2</title>
<g id="a_node19">
<ellipse fill="#d3d247" stroke="#000000" cx="558" cy="-42" rx="45.2458" ry="18"></ellipse>
<text text-anchor="middle" x="558" y="-37.80000000000001" font-family="Times,serif" font-size="14.00" fill="#000000">avgBMP</text>
</g>
</g><g id="node20" class="node">
<title>avgNog_2</title>
<g id="a_node20">
<ellipse fill="#d3d247" stroke="#000000" cx="663" cy="-42" rx="41.7172" ry="18"></ellipse>
<text text-anchor="middle" x="663" y="-37.80000000000001" font-family="Times,serif" font-size="14.00" fill="#000000">avgNog</text>
</g>
</g><g id="node21" class="node">
<title>cell_center_2</title>
<ellipse fill="#b5b426" stroke="#000000" cx="788" cy="-200" rx="50.9572" ry="18"></ellipse>
<text text-anchor="middle" x="788" y="-195.8" font-family="Times,serif" font-size="14.00" fill="#000000">cell.center</text>
</g><g id="node22" class="node">
<title>cell_type_2</title>
<g id="a_node22">
<ellipse fill="#d3d247" stroke="#000000" cx="675" cy="-200" rx="44.0377" ry="18"></ellipse>
<text text-anchor="middle" x="675" y="-195.8" font-family="Times,serif" font-size="14.00" fill="#000000">cell.type</text>
</g>
</g><g id="node23" class="node">
<title>isMedium_2</title>
<g id="a_node23">
<ellipse fill="#d3d247" stroke="#000000" cx="563" cy="-200" rx="50.3994" ry="18"></ellipse>
<text text-anchor="middle" x="563" y="-195.8" font-family="Times,serif" font-size="14.00" fill="#000000">isMedium</text>
</g>
</g><g id="node24" class="node">
<title>isMedium_3</title>
<g id="a_node24">
<ellipse fill="#d3d247" stroke="#000000" cx="1131" cy="-374.8" rx="50.3994" ry="18"></ellipse>
<text text-anchor="middle" x="1131" y="-370.6" font-family="Times,serif" font-size="14.00" fill="#000000">isMedium</text>
</g>
</g></g>
</svg>